<?xml version="1.0" encoding="utf-8" standalone="no"?>
<!DOCTYPE svg PUBLIC "-//W3C//DTD SVG 1.1//EN"
  "http://www.w3.org/Graphics/SVG/1.1/DTD/svg11.dtd">
<!-- Created with matplotlib (https://matplotlib.org/) -->
<svg height="345.6pt" version="1.1" viewBox="0 0 460.8 345.6" width="460.8pt" xmlns="http://www.w3.org/2000/svg" xmlns:xlink="http://www.w3.org/1999/xlink">
 <defs>
  <style type="text/css">
*{stroke-linecap:butt;stroke-linejoin:round;}
  </style>
 </defs>
 <g id="figure_1">
  <g id="patch_1">
   <path d="M 0 345.6 
L 460.8 345.6 
L 460.8 0 
L 0 0 
z
" style="fill:#ffffff;"/>
  </g>
  <g id="axes_1">
   <g id="patch_2">
    <path d="M 57.6 307.584 
L 414.72 307.584 
L 414.72 41.472 
L 57.6 41.472 
z
" style="fill:#ffffff;"/>
   </g>
   <g id="matplotlib.axis_1">
    <g id="xtick_1">
     <g id="line2d_1">
      <path clip-path="url(#pe41ae2b11c)" d="M 73.832727 307.584 
L 73.832727 41.472 
" style="fill:none;stroke:#b0b0b0;stroke-linecap:square;stroke-width:0.8;"/>
     </g>
     <g id="line2d_2">
      <defs>
       <path d="M 0 0 
L 0 3.5 
" id="ma27603d659" style="stroke:#000000;stroke-width:0.8;"/>
      </defs>
      <g>
       <use style="stroke:#000000;stroke-width:0.8;" x="73.832727" xlink:href="#ma27603d659" y="307.584"/>
      </g>
     </g>
     <g id="text_1">
      <!-- age -->
      <defs>
       <path d="M 34.28125 27.484375 
Q 23.390625 27.484375 19.1875 25 
Q 14.984375 22.515625 14.984375 16.5 
Q 14.984375 11.71875 18.140625 8.90625 
Q 21.296875 6.109375 26.703125 6.109375 
Q 34.1875 6.109375 38.703125 11.40625 
Q 43.21875 16.703125 43.21875 25.484375 
L 43.21875 27.484375 
z
M 52.203125 31.203125 
L 52.203125 0 
L 43.21875 0 
L 43.21875 8.296875 
Q 40.140625 3.328125 35.546875 0.953125 
Q 30.953125 -1.421875 24.3125 -1.421875 
Q 15.921875 -1.421875 10.953125 3.296875 
Q 6 8.015625 6 15.921875 
Q 6 25.140625 12.171875 29.828125 
Q 18.359375 34.515625 30.609375 34.515625 
L 43.21875 34.515625 
L 43.21875 35.40625 
Q 43.21875 41.609375 39.140625 45 
Q 35.0625 48.390625 27.6875 48.390625 
Q 23 48.390625 18.546875 47.265625 
Q 14.109375 46.140625 10.015625 43.890625 
L 10.015625 52.203125 
Q 14.9375 54.109375 19.578125 55.046875 
Q 24.21875 56 28.609375 56 
Q 40.484375 56 46.34375 49.84375 
Q 52.203125 43.703125 52.203125 31.203125 
z
" id="DejaVuSans-97"/>
       <path d="M 45.40625 27.984375 
Q 45.40625 37.75 41.375 43.109375 
Q 37.359375 48.484375 30.078125 48.484375 
Q 22.859375 48.484375 18.828125 43.109375 
Q 14.796875 37.75 14.796875 27.984375 
Q 14.796875 18.265625 18.828125 12.890625 
Q 22.859375 7.515625 30.078125 7.515625 
Q 37.359375 7.515625 41.375 12.890625 
Q 45.40625 18.265625 45.40625 27.984375 
z
M 54.390625 6.78125 
Q 54.390625 -7.171875 48.1875 -13.984375 
Q 42 -20.796875 29.203125 -20.796875 
Q 24.46875 -20.796875 20.265625 -20.09375 
Q 16.0625 -19.390625 12.109375 -17.921875 
L 12.109375 -9.1875 
Q 16.0625 -11.328125 19.921875 -12.34375 
Q 23.78125 -13.375 27.78125 -13.375 
Q 36.625 -13.375 41.015625 -8.765625 
Q 45.40625 -4.15625 45.40625 5.171875 
L 45.40625 9.625 
Q 42.625 4.78125 38.28125 2.390625 
Q 33.9375 0 27.875 0 
Q 17.828125 0 11.671875 7.65625 
Q 5.515625 15.328125 5.515625 27.984375 
Q 5.515625 40.671875 11.671875 48.328125 
Q 17.828125 56 27.875 56 
Q 33.9375 56 38.28125 53.609375 
Q 42.625 51.21875 45.40625 46.390625 
L 45.40625 54.6875 
L 54.390625 54.6875 
z
" id="DejaVuSans-103"/>
       <path d="M 56.203125 29.59375 
L 56.203125 25.203125 
L 14.890625 25.203125 
Q 15.484375 15.921875 20.484375 11.0625 
Q 25.484375 6.203125 34.421875 6.203125 
Q 39.59375 6.203125 44.453125 7.46875 
Q 49.3125 8.734375 54.109375 11.28125 
L 54.109375 2.78125 
Q 49.265625 0.734375 44.1875 -0.34375 
Q 39.109375 -1.421875 33.890625 -1.421875 
Q 20.796875 -1.421875 13.15625 6.1875 
Q 5.515625 13.8125 5.515625 26.8125 
Q 5.515625 40.234375 12.765625 48.109375 
Q 20.015625 56 32.328125 56 
Q 43.359375 56 49.78125 48.890625 
Q 56.203125 41.796875 56.203125 29.59375 
z
M 47.21875 32.234375 
Q 47.125 39.59375 43.09375 43.984375 
Q 39.0625 48.390625 32.421875 48.390625 
Q 24.90625 48.390625 20.390625 44.140625 
Q 15.875 39.890625 15.1875 32.171875 
z
" id="DejaVuSans-101"/>
      </defs>
      <g transform="translate(76.131287 330.10253)rotate(-90)scale(0.0833 -0.0833)">
       <use xlink:href="#DejaVuSans-97"/>
       <use x="61.279297" xlink:href="#DejaVuSans-103"/>
       <use x="124.755859" xlink:href="#DejaVuSans-101"/>
      </g>
     </g>
    </g>
    <g id="xtick_2">
     <g id="line2d_3">
      <path clip-path="url(#pe41ae2b11c)" d="M 81.21124 307.584 
L 81.21124 41.472 
" style="fill:none;stroke:#b0b0b0;stroke-linecap:square;stroke-width:0.8;"/>
     </g>
     <g id="line2d_4">
      <g>
       <use style="stroke:#000000;stroke-width:0.8;" x="81.21124" xlink:href="#ma27603d659" y="307.584"/>
      </g>
     </g>
     <g id="text_2">
      <!-- balance -->
      <defs>
       <path d="M 48.6875 27.296875 
Q 48.6875 37.203125 44.609375 42.84375 
Q 40.53125 48.484375 33.40625 48.484375 
Q 26.265625 48.484375 22.1875 42.84375 
Q 18.109375 37.203125 18.109375 27.296875 
Q 18.109375 17.390625 22.1875 11.75 
Q 26.265625 6.109375 33.40625 6.109375 
Q 40.53125 6.109375 44.609375 11.75 
Q 48.6875 17.390625 48.6875 27.296875 
z
M 18.109375 46.390625 
Q 20.953125 51.265625 25.265625 53.625 
Q 29.59375 56 35.59375 56 
Q 45.5625 56 51.78125 48.09375 
Q 58.015625 40.1875 58.015625 27.296875 
Q 58.015625 14.40625 51.78125 6.484375 
Q 45.5625 -1.421875 35.59375 -1.421875 
Q 29.59375 -1.421875 25.265625 0.953125 
Q 20.953125 3.328125 18.109375 8.203125 
L 18.109375 0 
L 9.078125 0 
L 9.078125 75.984375 
L 18.109375 75.984375 
z
" id="DejaVuSans-98"/>
       <path d="M 9.421875 75.984375 
L 18.40625 75.984375 
L 18.40625 0 
L 9.421875 0 
z
" id="DejaVuSans-108"/>
       <path d="M 54.890625 33.015625 
L 54.890625 0 
L 45.90625 0 
L 45.90625 32.71875 
Q 45.90625 40.484375 42.875 44.328125 
Q 39.84375 48.1875 33.796875 48.1875 
Q 26.515625 48.1875 22.3125 43.546875 
Q 18.109375 38.921875 18.109375 30.90625 
L 18.109375 0 
L 9.078125 0 
L 9.078125 54.6875 
L 18.109375 54.6875 
L 18.109375 46.1875 
Q 21.34375 51.125 25.703125 53.5625 
Q 30.078125 56 35.796875 56 
Q 45.21875 56 50.046875 50.171875 
Q 54.890625 44.34375 54.890625 33.015625 
z
" id="DejaVuSans-110"/>
       <path d="M 48.78125 52.59375 
L 48.78125 44.1875 
Q 44.96875 46.296875 41.140625 47.34375 
Q 37.3125 48.390625 33.40625 48.390625 
Q 24.65625 48.390625 19.8125 42.84375 
Q 14.984375 37.3125 14.984375 27.296875 
Q 14.984375 17.28125 19.8125 11.734375 
Q 24.65625 6.203125 33.40625 6.203125 
Q 37.3125 6.203125 41.140625 7.25 
Q 44.96875 8.296875 48.78125 10.40625 
L 48.78125 2.09375 
Q 45.015625 0.34375 40.984375 -0.53125 
Q 36.96875 -1.421875 32.421875 -1.421875 
Q 20.0625 -1.421875 12.78125 6.34375 
Q 5.515625 14.109375 5.515625 27.296875 
Q 5.515625 40.671875 12.859375 48.328125 
Q 20.21875 56 33.015625 56 
Q 37.15625 56 41.109375 55.140625 
Q 45.0625 54.296875 48.78125 52.59375 
z
" id="DejaVuSans-99"/>
      </defs>
      <g transform="translate(83.509799 347.380772)rotate(-90)scale(0.0833 -0.0833)">
       <use xlink:href="#DejaVuSans-98"/>
       <use x="63.476562" xlink:href="#DejaVuSans-97"/>
       <use x="124.755859" xlink:href="#DejaVuSans-108"/>
       <use x="152.539062" xlink:href="#DejaVuSans-97"/>
       <use x="213.818359" xlink:href="#DejaVuSans-110"/>
       <use x="277.197266" xlink:href="#DejaVuSans-99"/>
       <use x="332.177734" xlink:href="#DejaVuSans-101"/>
      </g>
     </g>
    </g>
    <g id="xtick_3">
     <g id="line2d_5">
      <path clip-path="url(#pe41ae2b11c)" d="M 88.589752 307.584 
L 88.589752 41.472 
" style="fill:none;stroke:#b0b0b0;stroke-linecap:square;stroke-width:0.8;"/>
     </g>
     <g id="line2d_6">
      <g>
       <use style="stroke:#000000;stroke-width:0.8;" x="88.589752" xlink:href="#ma27603d659" y="307.584"/>
      </g>
     </g>
     <g id="text_3">
      <!-- day -->
      <defs>
       <path d="M 45.40625 46.390625 
L 45.40625 75.984375 
L 54.390625 75.984375 
L 54.390625 0 
L 45.40625 0 
L 45.40625 8.203125 
Q 42.578125 3.328125 38.25 0.953125 
Q 33.9375 -1.421875 27.875 -1.421875 
Q 17.96875 -1.421875 11.734375 6.484375 
Q 5.515625 14.40625 5.515625 27.296875 
Q 5.515625 40.1875 11.734375 48.09375 
Q 17.96875 56 27.875 56 
Q 33.9375 56 38.25 53.625 
Q 42.578125 51.265625 45.40625 46.390625 
z
M 14.796875 27.296875 
Q 14.796875 17.390625 18.875 11.75 
Q 22.953125 6.109375 30.078125 6.109375 
Q 37.203125 6.109375 41.296875 11.75 
Q 45.40625 17.390625 45.40625 27.296875 
Q 45.40625 37.203125 41.296875 42.84375 
Q 37.203125 48.484375 30.078125 48.484375 
Q 22.953125 48.484375 18.875 42.84375 
Q 14.796875 37.203125 14.796875 27.296875 
z
" id="DejaVuSans-100"/>
       <path d="M 32.171875 -5.078125 
Q 28.375 -14.84375 24.75 -17.8125 
Q 21.140625 -20.796875 15.09375 -20.796875 
L 7.90625 -20.796875 
L 7.90625 -13.28125 
L 13.1875 -13.28125 
Q 16.890625 -13.28125 18.9375 -11.515625 
Q 21 -9.765625 23.484375 -3.21875 
L 25.09375 0.875 
L 2.984375 54.6875 
L 12.5 54.6875 
L 29.59375 11.921875 
L 46.6875 54.6875 
L 56.203125 54.6875 
z
" id="DejaVuSans-121"/>
      </defs>
      <g transform="translate(90.888311 329.907295)rotate(-90)scale(0.0833 -0.0833)">
       <use xlink:href="#DejaVuSans-100"/>
       <use x="63.476562" xlink:href="#DejaVuSans-97"/>
       <use x="124.755859" xlink:href="#DejaVuSans-121"/>
      </g>
     </g>
    </g>
    <g id="xtick_4">
     <g id="line2d_7">
      <path clip-path="url(#pe41ae2b11c)" d="M 95.968264 307.584 
L 95.968264 41.472 
" style="fill:none;stroke:#b0b0b0;stroke-linecap:square;stroke-width:0.8;"/>
     </g>
     <g id="line2d_8">
      <g>
       <use style="stroke:#000000;stroke-width:0.8;" x="95.968264" xlink:href="#ma27603d659" y="307.584"/>
      </g>
     </g>
     <g id="text_4">
      <!-- duration -->
      <defs>
       <path d="M 8.5 21.578125 
L 8.5 54.6875 
L 17.484375 54.6875 
L 17.484375 21.921875 
Q 17.484375 14.15625 20.5 10.265625 
Q 23.53125 6.390625 29.59375 6.390625 
Q 36.859375 6.390625 41.078125 11.03125 
Q 45.3125 15.671875 45.3125 23.6875 
L 45.3125 54.6875 
L 54.296875 54.6875 
L 54.296875 0 
L 45.3125 0 
L 45.3125 8.40625 
Q 42.046875 3.421875 37.71875 1 
Q 33.40625 -1.421875 27.6875 -1.421875 
Q 18.265625 -1.421875 13.375 4.4375 
Q 8.5 10.296875 8.5 21.578125 
z
M 31.109375 56 
z
" id="DejaVuSans-117"/>
       <path d="M 41.109375 46.296875 
Q 39.59375 47.171875 37.8125 47.578125 
Q 36.03125 48 33.890625 48 
Q 26.265625 48 22.1875 43.046875 
Q 18.109375 38.09375 18.109375 28.8125 
L 18.109375 0 
L 9.078125 0 
L 9.078125 54.6875 
L 18.109375 54.6875 
L 18.109375 46.1875 
Q 20.953125 51.171875 25.484375 53.578125 
Q 30.03125 56 36.53125 56 
Q 37.453125 56 38.578125 55.875 
Q 39.703125 55.765625 41.0625 55.515625 
z
" id="DejaVuSans-114"/>
       <path d="M 18.3125 70.21875 
L 18.3125 54.6875 
L 36.8125 54.6875 
L 36.8125 47.703125 
L 18.3125 47.703125 
L 18.3125 18.015625 
Q 18.3125 11.328125 20.140625 9.421875 
Q 21.96875 7.515625 27.59375 7.515625 
L 36.8125 7.515625 
L 36.8125 0 
L 27.59375 0 
Q 17.1875 0 13.234375 3.875 
Q 9.28125 7.765625 9.28125 18.015625 
L 9.28125 47.703125 
L 2.6875 47.703125 
L 2.6875 54.6875 
L 9.28125 54.6875 
L 9.28125 70.21875 
z
" id="DejaVuSans-116"/>
       <path d="M 9.421875 54.6875 
L 18.40625 54.6875 
L 18.40625 0 
L 9.421875 0 
z
M 9.421875 75.984375 
L 18.40625 75.984375 
L 18.40625 64.59375 
L 9.421875 64.59375 
z
" id="DejaVuSans-105"/>
       <path d="M 30.609375 48.390625 
Q 23.390625 48.390625 19.1875 42.75 
Q 14.984375 37.109375 14.984375 27.296875 
Q 14.984375 17.484375 19.15625 11.84375 
Q 23.34375 6.203125 30.609375 6.203125 
Q 37.796875 6.203125 41.984375 11.859375 
Q 46.1875 17.53125 46.1875 27.296875 
Q 46.1875 37.015625 41.984375 42.703125 
Q 37.796875 48.390625 30.609375 48.390625 
z
M 30.609375 56 
Q 42.328125 56 49.015625 48.375 
Q 55.71875 40.765625 55.71875 27.296875 
Q 55.71875 13.875 49.015625 6.21875 
Q 42.328125 -1.421875 30.609375 -1.421875 
Q 18.84375 -1.421875 12.171875 6.21875 
Q 5.515625 13.875 5.515625 27.296875 
Q 5.515625 40.765625 12.171875 48.375 
Q 18.84375 56 30.609375 56 
z
" id="DejaVuSans-111"/>
      </defs>
      <g transform="translate(98.266824 349.63638)rotate(-90)scale(0.0833 -0.0833)">
       <use xlink:href="#DejaVuSans-100"/>
       <use x="63.476562" xlink:href="#DejaVuSans-117"/>
       <use x="126.855469" xlink:href="#DejaVuSans-114"/>
       <use x="167.96875" xlink:href="#DejaVuSans-97"/>
       <use x="229.248047" xlink:href="#DejaVuSans-116"/>
       <use x="268.457031" xlink:href="#DejaVuSans-105"/>
       <use x="296.240234" xlink:href="#DejaVuSans-111"/>
       <use x="357.421875" xlink:href="#DejaVuSans-110"/>
      </g>
     </g>
    </g>
    <g id="xtick_5">
     <g id="line2d_9">
      <path clip-path="url(#pe41ae2b11c)" d="M 103.346777 307.584 
L 103.346777 41.472 
" style="fill:none;stroke:#b0b0b0;stroke-linecap:square;stroke-width:0.8;"/>
     </g>
     <g id="line2d_10">
      <g>
       <use style="stroke:#000000;stroke-width:0.8;" x="103.346777" xlink:href="#ma27603d659" y="307.584"/>
      </g>
     </g>
     <g id="text_5">
      <!-- campaign -->
      <defs>
       <path d="M 52 44.1875 
Q 55.375 50.25 60.0625 53.125 
Q 64.75 56 71.09375 56 
Q 79.640625 56 84.28125 50.015625 
Q 88.921875 44.046875 88.921875 33.015625 
L 88.921875 0 
L 79.890625 0 
L 79.890625 32.71875 
Q 79.890625 40.578125 77.09375 44.375 
Q 74.3125 48.1875 68.609375 48.1875 
Q 61.625 48.1875 57.5625 43.546875 
Q 53.515625 38.921875 53.515625 30.90625 
L 53.515625 0 
L 44.484375 0 
L 44.484375 32.71875 
Q 44.484375 40.625 41.703125 44.40625 
Q 38.921875 48.1875 33.109375 48.1875 
Q 26.21875 48.1875 22.15625 43.53125 
Q 18.109375 38.875 18.109375 30.90625 
L 18.109375 0 
L 9.078125 0 
L 9.078125 54.6875 
L 18.109375 54.6875 
L 18.109375 46.1875 
Q 21.1875 51.21875 25.484375 53.609375 
Q 29.78125 56 35.6875 56 
Q 41.65625 56 45.828125 52.96875 
Q 50 49.953125 52 44.1875 
z
" id="DejaVuSans-109"/>
       <path d="M 18.109375 8.203125 
L 18.109375 -20.796875 
L 9.078125 -20.796875 
L 9.078125 54.6875 
L 18.109375 54.6875 
L 18.109375 46.390625 
Q 20.953125 51.265625 25.265625 53.625 
Q 29.59375 56 35.59375 56 
Q 45.5625 56 51.78125 48.09375 
Q 58.015625 40.1875 58.015625 27.296875 
Q 58.015625 14.40625 51.78125 6.484375 
Q 45.5625 -1.421875 35.59375 -1.421875 
Q 29.59375 -1.421875 25.265625 0.953125 
Q 20.953125 3.328125 18.109375 8.203125 
z
M 48.6875 27.296875 
Q 48.6875 37.203125 44.609375 42.84375 
Q 40.53125 48.484375 33.40625 48.484375 
Q 26.265625 48.484375 22.1875 42.84375 
Q 18.109375 37.203125 18.109375 27.296875 
Q 18.109375 17.390625 22.1875 11.75 
Q 26.265625 6.109375 33.40625 6.109375 
Q 40.53125 6.109375 44.609375 11.75 
Q 48.6875 17.390625 48.6875 27.296875 
z
" id="DejaVuSans-112"/>
      </defs>
      <g transform="translate(105.645336 355.657408)rotate(-90)scale(0.0833 -0.0833)">
       <use xlink:href="#DejaVuSans-99"/>
       <use x="54.980469" xlink:href="#DejaVuSans-97"/>
       <use x="116.259766" xlink:href="#DejaVuSans-109"/>
       <use x="213.671875" xlink:href="#DejaVuSans-112"/>
       <use x="277.148438" xlink:href="#DejaVuSans-97"/>
       <use x="338.427734" xlink:href="#DejaVuSans-105"/>
       <use x="366.210938" xlink:href="#DejaVuSans-103"/>
       <use x="429.6875" xlink:href="#DejaVuSans-110"/>
      </g>
     </g>
    </g>
    <g id="xtick_6">
     <g id="line2d_11">
      <path clip-path="url(#pe41ae2b11c)" d="M 110.725289 307.584 
L 110.725289 41.472 
" style="fill:none;stroke:#b0b0b0;stroke-linecap:square;stroke-width:0.8;"/>
     </g>
     <g id="line2d_12">
      <g>
       <use style="stroke:#000000;stroke-width:0.8;" x="110.725289" xlink:href="#ma27603d659" y="307.584"/>
      </g>
     </g>
     <g id="text_6">
      <!-- pdays -->
      <defs>
       <path d="M 44.28125 53.078125 
L 44.28125 44.578125 
Q 40.484375 46.53125 36.375 47.5 
Q 32.28125 48.484375 27.875 48.484375 
Q 21.1875 48.484375 17.84375 46.4375 
Q 14.5 44.390625 14.5 40.28125 
Q 14.5 37.15625 16.890625 35.375 
Q 19.28125 33.59375 26.515625 31.984375 
L 29.59375 31.296875 
Q 39.15625 29.25 43.1875 25.515625 
Q 47.21875 21.78125 47.21875 15.09375 
Q 47.21875 7.46875 41.1875 3.015625 
Q 35.15625 -1.421875 24.609375 -1.421875 
Q 20.21875 -1.421875 15.453125 -0.5625 
Q 10.6875 0.296875 5.421875 2 
L 5.421875 11.28125 
Q 10.40625 8.6875 15.234375 7.390625 
Q 20.0625 6.109375 24.8125 6.109375 
Q 31.15625 6.109375 34.5625 8.28125 
Q 37.984375 10.453125 37.984375 14.40625 
Q 37.984375 18.0625 35.515625 20.015625 
Q 33.0625 21.96875 24.703125 23.78125 
L 21.578125 24.515625 
Q 13.234375 26.265625 9.515625 29.90625 
Q 5.8125 33.546875 5.8125 39.890625 
Q 5.8125 47.609375 11.28125 51.796875 
Q 16.75 56 26.8125 56 
Q 31.78125 56 36.171875 55.265625 
Q 40.578125 54.546875 44.28125 53.078125 
z
" id="DejaVuSans-115"/>
      </defs>
      <g transform="translate(113.023849 339.534953)rotate(-90)scale(0.0833 -0.0833)">
       <use xlink:href="#DejaVuSans-112"/>
       <use x="63.476562" xlink:href="#DejaVuSans-100"/>
       <use x="126.953125" xlink:href="#DejaVuSans-97"/>
       <use x="188.232422" xlink:href="#DejaVuSans-121"/>
       <use x="247.412109" xlink:href="#DejaVuSans-115"/>
      </g>
     </g>
    </g>
    <g id="xtick_7">
     <g id="line2d_13">
      <path clip-path="url(#pe41ae2b11c)" d="M 118.103802 307.584 
L 118.103802 41.472 
" style="fill:none;stroke:#b0b0b0;stroke-linecap:square;stroke-width:0.8;"/>
     </g>
     <g id="line2d_14">
      <g>
       <use style="stroke:#000000;stroke-width:0.8;" x="118.103802" xlink:href="#ma27603d659" y="307.584"/>
      </g>
     </g>
     <g id="text_7">
      <!-- previous -->
      <defs>
       <path d="M 2.984375 54.6875 
L 12.5 54.6875 
L 29.59375 8.796875 
L 46.6875 54.6875 
L 56.203125 54.6875 
L 35.6875 0 
L 23.484375 0 
z
" id="DejaVuSans-118"/>
      </defs>
      <g transform="translate(120.402361 350.379572)rotate(-90)scale(0.0833 -0.0833)">
       <use xlink:href="#DejaVuSans-112"/>
       <use x="63.476562" xlink:href="#DejaVuSans-114"/>
       <use x="104.558594" xlink:href="#DejaVuSans-101"/>
       <use x="166.082031" xlink:href="#DejaVuSans-118"/>
       <use x="225.261719" xlink:href="#DejaVuSans-105"/>
       <use x="253.044922" xlink:href="#DejaVuSans-111"/>
       <use x="314.226562" xlink:href="#DejaVuSans-117"/>
       <use x="377.605469" xlink:href="#DejaVuSans-115"/>
      </g>
     </g>
    </g>
    <g id="xtick_8">
     <g id="line2d_15">
      <path clip-path="url(#pe41ae2b11c)" d="M 125.482314 307.584 
L 125.482314 41.472 
" style="fill:none;stroke:#b0b0b0;stroke-linecap:square;stroke-width:0.8;"/>
     </g>
     <g id="line2d_16">
      <g>
       <use style="stroke:#000000;stroke-width:0.8;" x="125.482314" xlink:href="#ma27603d659" y="307.584"/>
      </g>
     </g>
     <g id="text_8">
      <!-- x0_admin. -->
      <defs>
       <path d="M 54.890625 54.6875 
L 35.109375 28.078125 
L 55.90625 0 
L 45.3125 0 
L 29.390625 21.484375 
L 13.484375 0 
L 2.875 0 
L 24.125 28.609375 
L 4.6875 54.6875 
L 15.28125 54.6875 
L 29.78125 35.203125 
L 44.28125 54.6875 
z
" id="DejaVuSans-120"/>
       <path d="M 31.78125 66.40625 
Q 24.171875 66.40625 20.328125 58.90625 
Q 16.5 51.421875 16.5 36.375 
Q 16.5 21.390625 20.328125 13.890625 
Q 24.171875 6.390625 31.78125 6.390625 
Q 39.453125 6.390625 43.28125 13.890625 
Q 47.125 21.390625 47.125 36.375 
Q 47.125 51.421875 43.28125 58.90625 
Q 39.453125 66.40625 31.78125 66.40625 
z
M 31.78125 74.21875 
Q 44.046875 74.21875 50.515625 64.515625 
Q 56.984375 54.828125 56.984375 36.375 
Q 56.984375 17.96875 50.515625 8.265625 
Q 44.046875 -1.421875 31.78125 -1.421875 
Q 19.53125 -1.421875 13.0625 8.265625 
Q 6.59375 17.96875 6.59375 36.375 
Q 6.59375 54.828125 13.0625 64.515625 
Q 19.53125 74.21875 31.78125 74.21875 
z
" id="DejaVuSans-48"/>
       <path d="M 50.984375 -16.609375 
L 50.984375 -23.578125 
L -0.984375 -23.578125 
L -0.984375 -16.609375 
z
" id="DejaVuSans-95"/>
       <path d="M 10.6875 12.40625 
L 21 12.40625 
L 21 0 
L 10.6875 0 
z
" id="DejaVuSans-46"/>
      </defs>
      <g transform="translate(127.665034 357.726892)rotate(-90)scale(0.0833 -0.0833)">
       <use xlink:href="#DejaVuSans-120"/>
       <use x="59.179688" xlink:href="#DejaVuSans-48"/>
       <use x="122.802734" xlink:href="#DejaVuSans-95"/>
       <use x="172.802734" xlink:href="#DejaVuSans-97"/>
       <use x="234.082031" xlink:href="#DejaVuSans-100"/>
       <use x="297.558594" xlink:href="#DejaVuSans-109"/>
       <use x="394.970703" xlink:href="#DejaVuSans-105"/>
       <use x="422.753906" xlink:href="#DejaVuSans-110"/>
       <use x="486.132812" xlink:href="#DejaVuSans-46"/>
      </g>
     </g>
    </g>
    <g id="xtick_9">
     <g id="line2d_17">
      <path clip-path="url(#pe41ae2b11c)" d="M 132.860826 307.584 
L 132.860826 41.472 
" style="fill:none;stroke:#b0b0b0;stroke-linecap:square;stroke-width:0.8;"/>
     </g>
     <g id="line2d_18">
      <g>
       <use style="stroke:#000000;stroke-width:0.8;" x="132.860826" xlink:href="#ma27603d659" y="307.584"/>
      </g>
     </g>
     <g id="text_9">
      <!-- x0_blue-collar -->
      <defs>
       <path d="M 4.890625 31.390625 
L 31.203125 31.390625 
L 31.203125 23.390625 
L 4.890625 23.390625 
z
" id="DejaVuSans-45"/>
      </defs>
      <g transform="translate(135.043547 372.826319)rotate(-90)scale(0.0833 -0.0833)">
       <use xlink:href="#DejaVuSans-120"/>
       <use x="59.179688" xlink:href="#DejaVuSans-48"/>
       <use x="122.802734" xlink:href="#DejaVuSans-95"/>
       <use x="172.802734" xlink:href="#DejaVuSans-98"/>
       <use x="236.279297" xlink:href="#DejaVuSans-108"/>
       <use x="264.0625" xlink:href="#DejaVuSans-117"/>
       <use x="327.441406" xlink:href="#DejaVuSans-101"/>
       <use x="388.964844" xlink:href="#DejaVuSans-45"/>
       <use x="425.048828" xlink:href="#DejaVuSans-99"/>
       <use x="480.029297" xlink:href="#DejaVuSans-111"/>
       <use x="541.210938" xlink:href="#DejaVuSans-108"/>
       <use x="568.994141" xlink:href="#DejaVuSans-108"/>
       <use x="596.777344" xlink:href="#DejaVuSans-97"/>
       <use x="658.056641" xlink:href="#DejaVuSans-114"/>
      </g>
     </g>
    </g>
    <g id="xtick_10">
     <g id="line2d_19">
      <path clip-path="url(#pe41ae2b11c)" d="M 140.239339 307.584 
L 140.239339 41.472 
" style="fill:none;stroke:#b0b0b0;stroke-linecap:square;stroke-width:0.8;"/>
     </g>
     <g id="line2d_20">
      <g>
       <use style="stroke:#000000;stroke-width:0.8;" x="140.239339" xlink:href="#ma27603d659" y="307.584"/>
      </g>
     </g>
     <g id="text_10">
      <!-- x0_entrepreneur -->
      <g transform="translate(142.348521 384.140802)rotate(-90)scale(0.0833 -0.0833)">
       <use xlink:href="#DejaVuSans-120"/>
       <use x="59.179688" xlink:href="#DejaVuSans-48"/>
       <use x="122.802734" xlink:href="#DejaVuSans-95"/>
       <use x="172.802734" xlink:href="#DejaVuSans-101"/>
       <use x="234.326172" xlink:href="#DejaVuSans-110"/>
       <use x="297.705078" xlink:href="#DejaVuSans-116"/>
       <use x="336.914062" xlink:href="#DejaVuSans-114"/>
       <use x="377.996094" xlink:href="#DejaVuSans-101"/>
       <use x="439.519531" xlink:href="#DejaVuSans-112"/>
       <use x="502.996094" xlink:href="#DejaVuSans-114"/>
       <use x="544.078125" xlink:href="#DejaVuSans-101"/>
       <use x="605.601562" xlink:href="#DejaVuSans-110"/>
       <use x="668.980469" xlink:href="#DejaVuSans-101"/>
       <use x="730.503906" xlink:href="#DejaVuSans-117"/>
       <use x="793.882812" xlink:href="#DejaVuSans-114"/>
      </g>
     </g>
    </g>
    <g id="xtick_11">
     <g id="line2d_21">
      <path clip-path="url(#pe41ae2b11c)" d="M 147.617851 307.584 
L 147.617851 41.472 
" style="fill:none;stroke:#b0b0b0;stroke-linecap:square;stroke-width:0.8;"/>
     </g>
     <g id="line2d_22">
      <g>
       <use style="stroke:#000000;stroke-width:0.8;" x="147.617851" xlink:href="#ma27603d659" y="307.584"/>
      </g>
     </g>
     <g id="text_11">
      <!-- x0_housemaid -->
      <defs>
       <path d="M 54.890625 33.015625 
L 54.890625 0 
L 45.90625 0 
L 45.90625 32.71875 
Q 45.90625 40.484375 42.875 44.328125 
Q 39.84375 48.1875 33.796875 48.1875 
Q 26.515625 48.1875 22.3125 43.546875 
Q 18.109375 38.921875 18.109375 30.90625 
L 18.109375 0 
L 9.078125 0 
L 9.078125 75.984375 
L 18.109375 75.984375 
L 18.109375 46.1875 
Q 21.34375 51.125 25.703125 53.5625 
Q 30.078125 56 35.796875 56 
Q 45.21875 56 50.046875 50.171875 
Q 54.890625 44.34375 54.890625 33.015625 
z
" id="DejaVuSans-104"/>
      </defs>
      <g transform="translate(149.800572 374.920533)rotate(-90)scale(0.0833 -0.0833)">
       <use xlink:href="#DejaVuSans-120"/>
       <use x="59.179688" xlink:href="#DejaVuSans-48"/>
       <use x="122.802734" xlink:href="#DejaVuSans-95"/>
       <use x="172.802734" xlink:href="#DejaVuSans-104"/>
       <use x="236.181641" xlink:href="#DejaVuSans-111"/>
       <use x="297.363281" xlink:href="#DejaVuSans-117"/>
       <use x="360.742188" xlink:href="#DejaVuSans-115"/>
       <use x="412.841797" xlink:href="#DejaVuSans-101"/>
       <use x="474.365234" xlink:href="#DejaVuSans-109"/>
       <use x="571.777344" xlink:href="#DejaVuSans-97"/>
       <use x="633.056641" xlink:href="#DejaVuSans-105"/>
       <use x="660.839844" xlink:href="#DejaVuSans-100"/>
      </g>
     </g>
    </g>
    <g id="xtick_12">
     <g id="line2d_23">
      <path clip-path="url(#pe41ae2b11c)" d="M 154.996364 307.584 
L 154.996364 41.472 
" style="fill:none;stroke:#b0b0b0;stroke-linecap:square;stroke-width:0.8;"/>
     </g>
     <g id="line2d_24">
      <g>
       <use style="stroke:#000000;stroke-width:0.8;" x="154.996364" xlink:href="#ma27603d659" y="307.584"/>
      </g>
     </g>
     <g id="text_12">
      <!-- x0_management -->
      <g transform="translate(157.105546 384.779869)rotate(-90)scale(0.0833 -0.0833)">
       <use xlink:href="#DejaVuSans-120"/>
       <use x="59.179688" xlink:href="#DejaVuSans-48"/>
       <use x="122.802734" xlink:href="#DejaVuSans-95"/>
       <use x="172.802734" xlink:href="#DejaVuSans-109"/>
       <use x="270.214844" xlink:href="#DejaVuSans-97"/>
       <use x="331.494141" xlink:href="#DejaVuSans-110"/>
       <use x="394.873047" xlink:href="#DejaVuSans-97"/>
       <use x="456.152344" xlink:href="#DejaVuSans-103"/>
       <use x="519.628906" xlink:href="#DejaVuSans-101"/>
       <use x="581.152344" xlink:href="#DejaVuSans-109"/>
       <use x="678.564453" xlink:href="#DejaVuSans-101"/>
       <use x="740.087891" xlink:href="#DejaVuSans-110"/>
       <use x="803.466797" xlink:href="#DejaVuSans-116"/>
      </g>
     </g>
    </g>
    <g id="xtick_13">
     <g id="line2d_25">
      <path clip-path="url(#pe41ae2b11c)" d="M 162.374876 307.584 
L 162.374876 41.472 
" style="fill:none;stroke:#b0b0b0;stroke-linecap:square;stroke-width:0.8;"/>
     </g>
     <g id="line2d_26">
      <g>
       <use style="stroke:#000000;stroke-width:0.8;" x="162.374876" xlink:href="#ma27603d659" y="307.584"/>
      </g>
     </g>
     <g id="text_13">
      <!-- x0_retired -->
      <g transform="translate(164.557596 356.94205)rotate(-90)scale(0.0833 -0.0833)">
       <use xlink:href="#DejaVuSans-120"/>
       <use x="59.179688" xlink:href="#DejaVuSans-48"/>
       <use x="122.802734" xlink:href="#DejaVuSans-95"/>
       <use x="172.802734" xlink:href="#DejaVuSans-114"/>
       <use x="213.884766" xlink:href="#DejaVuSans-101"/>
       <use x="275.408203" xlink:href="#DejaVuSans-116"/>
       <use x="314.617188" xlink:href="#DejaVuSans-105"/>
       <use x="342.400391" xlink:href="#DejaVuSans-114"/>
       <use x="383.482422" xlink:href="#DejaVuSans-101"/>
       <use x="445.005859" xlink:href="#DejaVuSans-100"/>
      </g>
     </g>
    </g>
    <g id="xtick_14">
     <g id="line2d_27">
      <path clip-path="url(#pe41ae2b11c)" d="M 169.753388 307.584 
L 169.753388 41.472 
" style="fill:none;stroke:#b0b0b0;stroke-linecap:square;stroke-width:0.8;"/>
     </g>
     <g id="line2d_28">
      <g>
       <use style="stroke:#000000;stroke-width:0.8;" x="169.753388" xlink:href="#ma27603d659" y="307.584"/>
      </g>
     </g>
     <g id="text_14">
      <!-- x0_self-employed -->
      <defs>
       <path d="M 37.109375 75.984375 
L 37.109375 68.5 
L 28.515625 68.5 
Q 23.6875 68.5 21.796875 66.546875 
Q 19.921875 64.59375 19.921875 59.515625 
L 19.921875 54.6875 
L 34.71875 54.6875 
L 34.71875 47.703125 
L 19.921875 47.703125 
L 19.921875 0 
L 10.890625 0 
L 10.890625 47.703125 
L 2.296875 47.703125 
L 2.296875 54.6875 
L 10.890625 54.6875 
L 10.890625 58.5 
Q 10.890625 67.625 15.140625 71.796875 
Q 19.390625 75.984375 28.609375 75.984375 
z
" id="DejaVuSans-102"/>
      </defs>
      <g transform="translate(171.936109 387.972602)rotate(-90)scale(0.0833 -0.0833)">
       <use xlink:href="#DejaVuSans-120"/>
       <use x="59.179688" xlink:href="#DejaVuSans-48"/>
       <use x="122.802734" xlink:href="#DejaVuSans-95"/>
       <use x="172.802734" xlink:href="#DejaVuSans-115"/>
       <use x="224.902344" xlink:href="#DejaVuSans-101"/>
       <use x="286.425781" xlink:href="#DejaVuSans-108"/>
       <use x="314.208984" xlink:href="#DejaVuSans-102"/>
       <use x="349.335938" xlink:href="#DejaVuSans-45"/>
       <use x="385.419922" xlink:href="#DejaVuSans-101"/>
       <use x="446.943359" xlink:href="#DejaVuSans-109"/>
       <use x="544.355469" xlink:href="#DejaVuSans-112"/>
       <use x="607.832031" xlink:href="#DejaVuSans-108"/>
       <use x="635.615234" xlink:href="#DejaVuSans-111"/>
       <use x="696.796875" xlink:href="#DejaVuSans-121"/>
       <use x="755.976562" xlink:href="#DejaVuSans-101"/>
       <use x="817.5" xlink:href="#DejaVuSans-100"/>
      </g>
     </g>
    </g>
    <g id="xtick_15">
     <g id="line2d_29">
      <path clip-path="url(#pe41ae2b11c)" d="M 177.131901 307.584 
L 177.131901 41.472 
" style="fill:none;stroke:#b0b0b0;stroke-linecap:square;stroke-width:0.8;"/>
     </g>
     <g id="line2d_30">
      <g>
       <use style="stroke:#000000;stroke-width:0.8;" x="177.131901" xlink:href="#ma27603d659" y="307.584"/>
      </g>
     </g>
     <g id="text_15">
      <!-- x0_services -->
      <g transform="translate(179.314621 363.158312)rotate(-90)scale(0.0833 -0.0833)">
       <use xlink:href="#DejaVuSans-120"/>
       <use x="59.179688" xlink:href="#DejaVuSans-48"/>
       <use x="122.802734" xlink:href="#DejaVuSans-95"/>
       <use x="172.802734" xlink:href="#DejaVuSans-115"/>
       <use x="224.902344" xlink:href="#DejaVuSans-101"/>
       <use x="286.425781" xlink:href="#DejaVuSans-114"/>
       <use x="327.539062" xlink:href="#DejaVuSans-118"/>
       <use x="386.71875" xlink:href="#DejaVuSans-105"/>
       <use x="414.501953" xlink:href="#DejaVuSans-99"/>
       <use x="469.482422" xlink:href="#DejaVuSans-101"/>
       <use x="531.005859" xlink:href="#DejaVuSans-115"/>
      </g>
     </g>
    </g>
    <g id="xtick_16">
     <g id="line2d_31">
      <path clip-path="url(#pe41ae2b11c)" d="M 184.510413 307.584 
L 184.510413 41.472 
" style="fill:none;stroke:#b0b0b0;stroke-linecap:square;stroke-width:0.8;"/>
     </g>
     <g id="line2d_32">
      <g>
       <use style="stroke:#000000;stroke-width:0.8;" x="184.510413" xlink:href="#ma27603d659" y="307.584"/>
      </g>
     </g>
     <g id="text_16">
      <!-- x0_student -->
      <g transform="translate(186.693134 360.822008)rotate(-90)scale(0.0833 -0.0833)">
       <use xlink:href="#DejaVuSans-120"/>
       <use x="59.179688" xlink:href="#DejaVuSans-48"/>
       <use x="122.802734" xlink:href="#DejaVuSans-95"/>
       <use x="172.802734" xlink:href="#DejaVuSans-115"/>
       <use x="224.902344" xlink:href="#DejaVuSans-116"/>
       <use x="264.111328" xlink:href="#DejaVuSans-117"/>
       <use x="327.490234" xlink:href="#DejaVuSans-100"/>
       <use x="390.966797" xlink:href="#DejaVuSans-101"/>
       <use x="452.490234" xlink:href="#DejaVuSans-110"/>
       <use x="515.869141" xlink:href="#DejaVuSans-116"/>
      </g>
     </g>
    </g>
    <g id="xtick_17">
     <g id="line2d_33">
      <path clip-path="url(#pe41ae2b11c)" d="M 191.888926 307.584 
L 191.888926 41.472 
" style="fill:none;stroke:#b0b0b0;stroke-linecap:square;stroke-width:0.8;"/>
     </g>
     <g id="line2d_34">
      <g>
       <use style="stroke:#000000;stroke-width:0.8;" x="191.888926" xlink:href="#ma27603d659" y="307.584"/>
      </g>
     </g>
     <g id="text_17">
      <!-- x0_technician -->
      <g transform="translate(194.071646 372.101348)rotate(-90)scale(0.0833 -0.0833)">
       <use xlink:href="#DejaVuSans-120"/>
       <use x="59.179688" xlink:href="#DejaVuSans-48"/>
       <use x="122.802734" xlink:href="#DejaVuSans-95"/>
       <use x="172.802734" xlink:href="#DejaVuSans-116"/>
       <use x="212.011719" xlink:href="#DejaVuSans-101"/>
       <use x="273.535156" xlink:href="#DejaVuSans-99"/>
       <use x="328.515625" xlink:href="#DejaVuSans-104"/>
       <use x="391.894531" xlink:href="#DejaVuSans-110"/>
       <use x="455.273438" xlink:href="#DejaVuSans-105"/>
       <use x="483.056641" xlink:href="#DejaVuSans-99"/>
       <use x="538.037109" xlink:href="#DejaVuSans-105"/>
       <use x="565.820312" xlink:href="#DejaVuSans-97"/>
       <use x="627.099609" xlink:href="#DejaVuSans-110"/>
      </g>
     </g>
    </g>
    <g id="xtick_18">
     <g id="line2d_35">
      <path clip-path="url(#pe41ae2b11c)" d="M 199.267438 307.584 
L 199.267438 41.472 
" style="fill:none;stroke:#b0b0b0;stroke-linecap:square;stroke-width:0.8;"/>
     </g>
     <g id="line2d_36">
      <g>
       <use style="stroke:#000000;stroke-width:0.8;" x="199.267438" xlink:href="#ma27603d659" y="307.584"/>
      </g>
     </g>
     <g id="text_18">
      <!-- x0_unemployed -->
      <g transform="translate(201.450158 380.820516)rotate(-90)scale(0.0833 -0.0833)">
       <use xlink:href="#DejaVuSans-120"/>
       <use x="59.179688" xlink:href="#DejaVuSans-48"/>
       <use x="122.802734" xlink:href="#DejaVuSans-95"/>
       <use x="172.802734" xlink:href="#DejaVuSans-117"/>
       <use x="236.181641" xlink:href="#DejaVuSans-110"/>
       <use x="299.560547" xlink:href="#DejaVuSans-101"/>
       <use x="361.083984" xlink:href="#DejaVuSans-109"/>
       <use x="458.496094" xlink:href="#DejaVuSans-112"/>
       <use x="521.972656" xlink:href="#DejaVuSans-108"/>
       <use x="549.755859" xlink:href="#DejaVuSans-111"/>
       <use x="610.9375" xlink:href="#DejaVuSans-121"/>
       <use x="670.117188" xlink:href="#DejaVuSans-101"/>
       <use x="731.640625" xlink:href="#DejaVuSans-100"/>
      </g>
     </g>
    </g>
    <g id="xtick_19">
     <g id="line2d_37">
      <path clip-path="url(#pe41ae2b11c)" d="M 206.64595 307.584 
L 206.64595 41.472 
" style="fill:none;stroke:#b0b0b0;stroke-linecap:square;stroke-width:0.8;"/>
     </g>
     <g id="line2d_38">
      <g>
       <use style="stroke:#000000;stroke-width:0.8;" x="206.64595" xlink:href="#ma27603d659" y="307.584"/>
      </g>
     </g>
     <g id="text_19">
      <!-- x1_divorced -->
      <defs>
       <path d="M 12.40625 8.296875 
L 28.515625 8.296875 
L 28.515625 63.921875 
L 10.984375 60.40625 
L 10.984375 69.390625 
L 28.421875 72.90625 
L 38.28125 72.90625 
L 38.28125 8.296875 
L 54.390625 8.296875 
L 54.390625 0 
L 12.40625 0 
z
" id="DejaVuSans-49"/>
      </defs>
      <g transform="translate(208.828671 365.024753)rotate(-90)scale(0.0833 -0.0833)">
       <use xlink:href="#DejaVuSans-120"/>
       <use x="59.179688" xlink:href="#DejaVuSans-49"/>
       <use x="122.802734" xlink:href="#DejaVuSans-95"/>
       <use x="172.802734" xlink:href="#DejaVuSans-100"/>
       <use x="236.279297" xlink:href="#DejaVuSans-105"/>
       <use x="264.0625" xlink:href="#DejaVuSans-118"/>
       <use x="323.242188" xlink:href="#DejaVuSans-111"/>
       <use x="384.423828" xlink:href="#DejaVuSans-114"/>
       <use x="425.505859" xlink:href="#DejaVuSans-99"/>
       <use x="480.486328" xlink:href="#DejaVuSans-101"/>
       <use x="542.009766" xlink:href="#DejaVuSans-100"/>
      </g>
     </g>
    </g>
    <g id="xtick_20">
     <g id="line2d_39">
      <path clip-path="url(#pe41ae2b11c)" d="M 214.024463 307.584 
L 214.024463 41.472 
" style="fill:none;stroke:#b0b0b0;stroke-linecap:square;stroke-width:0.8;"/>
     </g>
     <g id="line2d_40">
      <g>
       <use style="stroke:#000000;stroke-width:0.8;" x="214.024463" xlink:href="#ma27603d659" y="307.584"/>
      </g>
     </g>
     <g id="text_20">
      <!-- x1_married -->
      <g transform="translate(216.207183 361.77345)rotate(-90)scale(0.0833 -0.0833)">
       <use xlink:href="#DejaVuSans-120"/>
       <use x="59.179688" xlink:href="#DejaVuSans-49"/>
       <use x="122.802734" xlink:href="#DejaVuSans-95"/>
       <use x="172.802734" xlink:href="#DejaVuSans-109"/>
       <use x="270.214844" xlink:href="#DejaVuSans-97"/>
       <use x="331.494141" xlink:href="#DejaVuSans-114"/>
       <use x="372.591797" xlink:href="#DejaVuSans-114"/>
       <use x="413.705078" xlink:href="#DejaVuSans-105"/>
       <use x="441.488281" xlink:href="#DejaVuSans-101"/>
       <use x="503.011719" xlink:href="#DejaVuSans-100"/>
      </g>
     </g>
    </g>
    <g id="xtick_21">
     <g id="line2d_41">
      <path clip-path="url(#pe41ae2b11c)" d="M 221.402975 307.584 
L 221.402975 41.472 
" style="fill:none;stroke:#b0b0b0;stroke-linecap:square;stroke-width:0.8;"/>
     </g>
     <g id="line2d_42">
      <g>
       <use style="stroke:#000000;stroke-width:0.8;" x="221.402975" xlink:href="#ma27603d659" y="307.584"/>
      </g>
     </g>
     <g id="text_21">
      <!-- x1_single -->
      <g transform="translate(223.585696 353.639986)rotate(-90)scale(0.0833 -0.0833)">
       <use xlink:href="#DejaVuSans-120"/>
       <use x="59.179688" xlink:href="#DejaVuSans-49"/>
       <use x="122.802734" xlink:href="#DejaVuSans-95"/>
       <use x="172.802734" xlink:href="#DejaVuSans-115"/>
       <use x="224.902344" xlink:href="#DejaVuSans-105"/>
       <use x="252.685547" xlink:href="#DejaVuSans-110"/>
       <use x="316.064453" xlink:href="#DejaVuSans-103"/>
       <use x="379.541016" xlink:href="#DejaVuSans-108"/>
       <use x="407.324219" xlink:href="#DejaVuSans-101"/>
      </g>
     </g>
    </g>
    <g id="xtick_22">
     <g id="line2d_43">
      <path clip-path="url(#pe41ae2b11c)" d="M 228.781488 307.584 
L 228.781488 41.472 
" style="fill:none;stroke:#b0b0b0;stroke-linecap:square;stroke-width:0.8;"/>
     </g>
     <g id="line2d_44">
      <g>
       <use style="stroke:#000000;stroke-width:0.8;" x="228.781488" xlink:href="#ma27603d659" y="307.584"/>
      </g>
     </g>
     <g id="text_22">
      <!-- x2_primary -->
      <defs>
       <path d="M 19.1875 8.296875 
L 53.609375 8.296875 
L 53.609375 0 
L 7.328125 0 
L 7.328125 8.296875 
Q 12.9375 14.109375 22.625 23.890625 
Q 32.328125 33.6875 34.8125 36.53125 
Q 39.546875 41.84375 41.421875 45.53125 
Q 43.3125 49.21875 43.3125 52.78125 
Q 43.3125 58.59375 39.234375 62.25 
Q 35.15625 65.921875 28.609375 65.921875 
Q 23.96875 65.921875 18.8125 64.3125 
Q 13.671875 62.703125 7.8125 59.421875 
L 7.8125 69.390625 
Q 13.765625 71.78125 18.9375 73 
Q 24.125 74.21875 28.421875 74.21875 
Q 39.75 74.21875 46.484375 68.546875 
Q 53.21875 62.890625 53.21875 53.421875 
Q 53.21875 48.921875 51.53125 44.890625 
Q 49.859375 40.875 45.40625 35.40625 
Q 44.1875 33.984375 37.640625 27.21875 
Q 31.109375 20.453125 19.1875 8.296875 
z
" id="DejaVuSans-50"/>
      </defs>
      <g transform="translate(230.964208 361.579517)rotate(-90)scale(0.0833 -0.0833)">
       <use xlink:href="#DejaVuSans-120"/>
       <use x="59.179688" xlink:href="#DejaVuSans-50"/>
       <use x="122.802734" xlink:href="#DejaVuSans-95"/>
       <use x="172.802734" xlink:href="#DejaVuSans-112"/>
       <use x="236.279297" xlink:href="#DejaVuSans-114"/>
       <use x="277.392578" xlink:href="#DejaVuSans-105"/>
       <use x="305.175781" xlink:href="#DejaVuSans-109"/>
       <use x="402.587891" xlink:href="#DejaVuSans-97"/>
       <use x="463.867188" xlink:href="#DejaVuSans-114"/>
       <use x="504.980469" xlink:href="#DejaVuSans-121"/>
      </g>
     </g>
    </g>
    <g id="xtick_23">
     <g id="line2d_45">
      <path clip-path="url(#pe41ae2b11c)" d="M 236.16 307.584 
L 236.16 41.472 
" style="fill:none;stroke:#b0b0b0;stroke-linecap:square;stroke-width:0.8;"/>
     </g>
     <g id="line2d_46">
      <g>
       <use style="stroke:#000000;stroke-width:0.8;" x="236.16" xlink:href="#ma27603d659" y="307.584"/>
      </g>
     </g>
     <g id="text_23">
      <!-- x2_secondary -->
      <g transform="translate(238.34272 372.148205)rotate(-90)scale(0.0833 -0.0833)">
       <use xlink:href="#DejaVuSans-120"/>
       <use x="59.179688" xlink:href="#DejaVuSans-50"/>
       <use x="122.802734" xlink:href="#DejaVuSans-95"/>
       <use x="172.802734" xlink:href="#DejaVuSans-115"/>
       <use x="224.902344" xlink:href="#DejaVuSans-101"/>
       <use x="286.425781" xlink:href="#DejaVuSans-99"/>
       <use x="341.40625" xlink:href="#DejaVuSans-111"/>
       <use x="402.587891" xlink:href="#DejaVuSans-110"/>
       <use x="465.966797" xlink:href="#DejaVuSans-100"/>
       <use x="529.443359" xlink:href="#DejaVuSans-97"/>
       <use x="590.722656" xlink:href="#DejaVuSans-114"/>
       <use x="631.835938" xlink:href="#DejaVuSans-121"/>
      </g>
     </g>
    </g>
    <g id="xtick_24">
     <g id="line2d_47">
      <path clip-path="url(#pe41ae2b11c)" d="M 243.538512 307.584 
L 243.538512 41.472 
" style="fill:none;stroke:#b0b0b0;stroke-linecap:square;stroke-width:0.8;"/>
     </g>
     <g id="line2d_48">
      <g>
       <use style="stroke:#000000;stroke-width:0.8;" x="243.538512" xlink:href="#ma27603d659" y="307.584"/>
      </g>
     </g>
     <g id="text_24">
      <!-- x2_tertiary -->
      <g transform="translate(245.721233 359.834122)rotate(-90)scale(0.0833 -0.0833)">
       <use xlink:href="#DejaVuSans-120"/>
       <use x="59.179688" xlink:href="#DejaVuSans-50"/>
       <use x="122.802734" xlink:href="#DejaVuSans-95"/>
       <use x="172.802734" xlink:href="#DejaVuSans-116"/>
       <use x="212.011719" xlink:href="#DejaVuSans-101"/>
       <use x="273.535156" xlink:href="#DejaVuSans-114"/>
       <use x="314.648438" xlink:href="#DejaVuSans-116"/>
       <use x="353.857422" xlink:href="#DejaVuSans-105"/>
       <use x="381.640625" xlink:href="#DejaVuSans-97"/>
       <use x="442.919922" xlink:href="#DejaVuSans-114"/>
       <use x="484.033203" xlink:href="#DejaVuSans-121"/>
      </g>
     </g>
    </g>
    <g id="xtick_25">
     <g id="line2d_49">
      <path clip-path="url(#pe41ae2b11c)" d="M 250.917025 307.584 
L 250.917025 41.472 
" style="fill:none;stroke:#b0b0b0;stroke-linecap:square;stroke-width:0.8;"/>
     </g>
     <g id="line2d_50">
      <g>
       <use style="stroke:#000000;stroke-width:0.8;" x="250.917025" xlink:href="#ma27603d659" y="307.584"/>
      </g>
     </g>
     <g id="text_25">
      <!-- x3_cellular -->
      <defs>
       <path d="M 40.578125 39.3125 
Q 47.65625 37.796875 51.625 33 
Q 55.609375 28.21875 55.609375 21.1875 
Q 55.609375 10.40625 48.1875 4.484375 
Q 40.765625 -1.421875 27.09375 -1.421875 
Q 22.515625 -1.421875 17.65625 -0.515625 
Q 12.796875 0.390625 7.625 2.203125 
L 7.625 11.71875 
Q 11.71875 9.328125 16.59375 8.109375 
Q 21.484375 6.890625 26.8125 6.890625 
Q 36.078125 6.890625 40.9375 10.546875 
Q 45.796875 14.203125 45.796875 21.1875 
Q 45.796875 27.640625 41.28125 31.265625 
Q 36.765625 34.90625 28.71875 34.90625 
L 20.21875 34.90625 
L 20.21875 43.015625 
L 29.109375 43.015625 
Q 36.375 43.015625 40.234375 45.921875 
Q 44.09375 48.828125 44.09375 54.296875 
Q 44.09375 59.90625 40.109375 62.90625 
Q 36.140625 65.921875 28.71875 65.921875 
Q 24.65625 65.921875 20.015625 65.03125 
Q 15.375 64.15625 9.8125 62.3125 
L 9.8125 71.09375 
Q 15.4375 72.65625 20.34375 73.4375 
Q 25.25 74.21875 29.59375 74.21875 
Q 40.828125 74.21875 47.359375 69.109375 
Q 53.90625 64.015625 53.90625 55.328125 
Q 53.90625 49.265625 50.4375 45.09375 
Q 46.96875 40.921875 40.578125 39.3125 
z
" id="DejaVuSans-51"/>
      </defs>
      <g transform="translate(253.099745 359.435844)rotate(-90)scale(0.0833 -0.0833)">
       <use xlink:href="#DejaVuSans-120"/>
       <use x="59.179688" xlink:href="#DejaVuSans-51"/>
       <use x="122.802734" xlink:href="#DejaVuSans-95"/>
       <use x="172.802734" xlink:href="#DejaVuSans-99"/>
       <use x="227.783203" xlink:href="#DejaVuSans-101"/>
       <use x="289.306641" xlink:href="#DejaVuSans-108"/>
       <use x="317.089844" xlink:href="#DejaVuSans-108"/>
       <use x="344.873047" xlink:href="#DejaVuSans-117"/>
       <use x="408.251953" xlink:href="#DejaVuSans-108"/>
       <use x="436.035156" xlink:href="#DejaVuSans-97"/>
       <use x="497.314453" xlink:href="#DejaVuSans-114"/>
      </g>
     </g>
    </g>
    <g id="xtick_26">
     <g id="line2d_51">
      <path clip-path="url(#pe41ae2b11c)" d="M 258.295537 307.584 
L 258.295537 41.472 
" style="fill:none;stroke:#b0b0b0;stroke-linecap:square;stroke-width:0.8;"/>
     </g>
     <g id="line2d_52">
      <g>
       <use style="stroke:#000000;stroke-width:0.8;" x="258.295537" xlink:href="#ma27603d659" y="307.584"/>
      </g>
     </g>
     <g id="text_26">
      <!-- x3_telephone -->
      <g transform="translate(260.478258 370.879181)rotate(-90)scale(0.0833 -0.0833)">
       <use xlink:href="#DejaVuSans-120"/>
       <use x="59.179688" xlink:href="#DejaVuSans-51"/>
       <use x="122.802734" xlink:href="#DejaVuSans-95"/>
       <use x="172.802734" xlink:href="#DejaVuSans-116"/>
       <use x="212.011719" xlink:href="#DejaVuSans-101"/>
       <use x="273.535156" xlink:href="#DejaVuSans-108"/>
       <use x="301.318359" xlink:href="#DejaVuSans-101"/>
       <use x="362.841797" xlink:href="#DejaVuSans-112"/>
       <use x="426.318359" xlink:href="#DejaVuSans-104"/>
       <use x="489.697266" xlink:href="#DejaVuSans-111"/>
       <use x="550.878906" xlink:href="#DejaVuSans-110"/>
       <use x="614.257812" xlink:href="#DejaVuSans-101"/>
      </g>
     </g>
    </g>
    <g id="xtick_27">
     <g id="line2d_53">
      <path clip-path="url(#pe41ae2b11c)" d="M 265.67405 307.584 
L 265.67405 41.472 
" style="fill:none;stroke:#b0b0b0;stroke-linecap:square;stroke-width:0.8;"/>
     </g>
     <g id="line2d_54">
      <g>
       <use style="stroke:#000000;stroke-width:0.8;" x="265.67405" xlink:href="#ma27603d659" y="307.584"/>
      </g>
     </g>
     <g id="text_27">
      <!-- x4_apr -->
      <defs>
       <path d="M 37.796875 64.3125 
L 12.890625 25.390625 
L 37.796875 25.390625 
z
M 35.203125 72.90625 
L 47.609375 72.90625 
L 47.609375 25.390625 
L 58.015625 25.390625 
L 58.015625 17.1875 
L 47.609375 17.1875 
L 47.609375 0 
L 37.796875 0 
L 37.796875 17.1875 
L 4.890625 17.1875 
L 4.890625 26.703125 
z
" id="DejaVuSans-52"/>
      </defs>
      <g transform="translate(267.740931 342.796669)rotate(-90)scale(0.0833 -0.0833)">
       <use xlink:href="#DejaVuSans-120"/>
       <use x="59.179688" xlink:href="#DejaVuSans-52"/>
       <use x="122.802734" xlink:href="#DejaVuSans-95"/>
       <use x="172.802734" xlink:href="#DejaVuSans-97"/>
       <use x="234.082031" xlink:href="#DejaVuSans-112"/>
       <use x="297.558594" xlink:href="#DejaVuSans-114"/>
      </g>
     </g>
    </g>
    <g id="xtick_28">
     <g id="line2d_55">
      <path clip-path="url(#pe41ae2b11c)" d="M 273.052562 307.584 
L 273.052562 41.472 
" style="fill:none;stroke:#b0b0b0;stroke-linecap:square;stroke-width:0.8;"/>
     </g>
     <g id="line2d_56">
      <g>
       <use style="stroke:#000000;stroke-width:0.8;" x="273.052562" xlink:href="#ma27603d659" y="307.584"/>
      </g>
     </g>
     <g id="text_28">
      <!-- x4_aug -->
      <g transform="translate(275.119443 344.651395)rotate(-90)scale(0.0833 -0.0833)">
       <use xlink:href="#DejaVuSans-120"/>
       <use x="59.179688" xlink:href="#DejaVuSans-52"/>
       <use x="122.802734" xlink:href="#DejaVuSans-95"/>
       <use x="172.802734" xlink:href="#DejaVuSans-97"/>
       <use x="234.082031" xlink:href="#DejaVuSans-117"/>
       <use x="297.460938" xlink:href="#DejaVuSans-103"/>
      </g>
     </g>
    </g>
    <g id="xtick_29">
     <g id="line2d_57">
      <path clip-path="url(#pe41ae2b11c)" d="M 280.431074 307.584 
L 280.431074 41.472 
" style="fill:none;stroke:#b0b0b0;stroke-linecap:square;stroke-width:0.8;"/>
     </g>
     <g id="line2d_58">
      <g>
       <use style="stroke:#000000;stroke-width:0.8;" x="280.431074" xlink:href="#ma27603d659" y="307.584"/>
      </g>
     </g>
     <g id="text_29">
      <!-- x4_dec -->
      <g transform="translate(282.613795 343.973281)rotate(-90)scale(0.0833 -0.0833)">
       <use xlink:href="#DejaVuSans-120"/>
       <use x="59.179688" xlink:href="#DejaVuSans-52"/>
       <use x="122.802734" xlink:href="#DejaVuSans-95"/>
       <use x="172.802734" xlink:href="#DejaVuSans-100"/>
       <use x="236.279297" xlink:href="#DejaVuSans-101"/>
       <use x="297.802734" xlink:href="#DejaVuSans-99"/>
      </g>
     </g>
    </g>
    <g id="xtick_30">
     <g id="line2d_59">
      <path clip-path="url(#pe41ae2b11c)" d="M 287.809587 307.584 
L 287.809587 41.472 
" style="fill:none;stroke:#b0b0b0;stroke-linecap:square;stroke-width:0.8;"/>
     </g>
     <g id="line2d_60">
      <g>
       <use style="stroke:#000000;stroke-width:0.8;" x="287.809587" xlink:href="#ma27603d659" y="307.584"/>
      </g>
     </g>
     <g id="text_30">
      <!-- x4_feb -->
      <g transform="translate(289.992307 342.325503)rotate(-90)scale(0.0833 -0.0833)">
       <use xlink:href="#DejaVuSans-120"/>
       <use x="59.179688" xlink:href="#DejaVuSans-52"/>
       <use x="122.802734" xlink:href="#DejaVuSans-95"/>
       <use x="172.802734" xlink:href="#DejaVuSans-102"/>
       <use x="208.007812" xlink:href="#DejaVuSans-101"/>
       <use x="269.53125" xlink:href="#DejaVuSans-98"/>
      </g>
     </g>
    </g>
    <g id="xtick_31">
     <g id="line2d_61">
      <path clip-path="url(#pe41ae2b11c)" d="M 295.188099 307.584 
L 295.188099 41.472 
" style="fill:none;stroke:#b0b0b0;stroke-linecap:square;stroke-width:0.8;"/>
     </g>
     <g id="line2d_62">
      <g>
       <use style="stroke:#000000;stroke-width:0.8;" x="295.188099" xlink:href="#ma27603d659" y="307.584"/>
      </g>
     </g>
     <g id="text_31">
      <!-- x4_jan -->
      <defs>
       <path d="M 9.421875 54.6875 
L 18.40625 54.6875 
L 18.40625 -0.984375 
Q 18.40625 -11.421875 14.421875 -16.109375 
Q 10.453125 -20.796875 1.609375 -20.796875 
L -1.8125 -20.796875 
L -1.8125 -13.1875 
L 0.59375 -13.1875 
Q 5.71875 -13.1875 7.5625 -10.8125 
Q 9.421875 -8.453125 9.421875 -0.984375 
z
M 9.421875 75.984375 
L 18.40625 75.984375 
L 18.40625 64.59375 
L 9.421875 64.59375 
z
" id="DejaVuSans-106"/>
      </defs>
      <g transform="translate(297.370819 341.677325)rotate(-90)scale(0.0833 -0.0833)">
       <use xlink:href="#DejaVuSans-120"/>
       <use x="59.179688" xlink:href="#DejaVuSans-52"/>
       <use x="122.802734" xlink:href="#DejaVuSans-95"/>
       <use x="172.802734" xlink:href="#DejaVuSans-106"/>
       <use x="200.585938" xlink:href="#DejaVuSans-97"/>
       <use x="261.865234" xlink:href="#DejaVuSans-110"/>
      </g>
     </g>
    </g>
    <g id="xtick_32">
     <g id="line2d_63">
      <path clip-path="url(#pe41ae2b11c)" d="M 302.566612 307.584 
L 302.566612 41.472 
" style="fill:none;stroke:#b0b0b0;stroke-linecap:square;stroke-width:0.8;"/>
     </g>
     <g id="line2d_64">
      <g>
       <use style="stroke:#000000;stroke-width:0.8;" x="302.566612" xlink:href="#ma27603d659" y="307.584"/>
      </g>
     </g>
     <g id="text_32">
      <!-- x4_jul -->
      <g transform="translate(304.749332 338.886775)rotate(-90)scale(0.0833 -0.0833)">
       <use xlink:href="#DejaVuSans-120"/>
       <use x="59.179688" xlink:href="#DejaVuSans-52"/>
       <use x="122.802734" xlink:href="#DejaVuSans-95"/>
       <use x="172.802734" xlink:href="#DejaVuSans-106"/>
       <use x="200.585938" xlink:href="#DejaVuSans-117"/>
       <use x="263.964844" xlink:href="#DejaVuSans-108"/>
      </g>
     </g>
    </g>
    <g id="xtick_33">
     <g id="line2d_65">
      <path clip-path="url(#pe41ae2b11c)" d="M 309.945124 307.584 
L 309.945124 41.472 
" style="fill:none;stroke:#b0b0b0;stroke-linecap:square;stroke-width:0.8;"/>
     </g>
     <g id="line2d_66">
      <g>
       <use style="stroke:#000000;stroke-width:0.8;" x="309.945124" xlink:href="#ma27603d659" y="307.584"/>
      </g>
     </g>
     <g id="text_33">
      <!-- x4_jun -->
      <g transform="translate(312.127844 341.851734)rotate(-90)scale(0.0833 -0.0833)">
       <use xlink:href="#DejaVuSans-120"/>
       <use x="59.179688" xlink:href="#DejaVuSans-52"/>
       <use x="122.802734" xlink:href="#DejaVuSans-95"/>
       <use x="172.802734" xlink:href="#DejaVuSans-106"/>
       <use x="200.585938" xlink:href="#DejaVuSans-117"/>
       <use x="263.964844" xlink:href="#DejaVuSans-110"/>
      </g>
     </g>
    </g>
    <g id="xtick_34">
     <g id="line2d_67">
      <path clip-path="url(#pe41ae2b11c)" d="M 317.323636 307.584 
L 317.323636 41.472 
" style="fill:none;stroke:#b0b0b0;stroke-linecap:square;stroke-width:0.8;"/>
     </g>
     <g id="line2d_68">
      <g>
       <use style="stroke:#000000;stroke-width:0.8;" x="317.323636" xlink:href="#ma27603d659" y="307.584"/>
      </g>
     </g>
     <g id="text_34">
      <!-- x4_mar -->
      <g transform="translate(319.390518 345.622361)rotate(-90)scale(0.0833 -0.0833)">
       <use xlink:href="#DejaVuSans-120"/>
       <use x="59.179688" xlink:href="#DejaVuSans-52"/>
       <use x="122.802734" xlink:href="#DejaVuSans-95"/>
       <use x="172.802734" xlink:href="#DejaVuSans-109"/>
       <use x="270.214844" xlink:href="#DejaVuSans-97"/>
       <use x="331.494141" xlink:href="#DejaVuSans-114"/>
      </g>
     </g>
    </g>
    <g id="xtick_35">
     <g id="line2d_69">
      <path clip-path="url(#pe41ae2b11c)" d="M 324.702149 307.584 
L 324.702149 41.472 
" style="fill:none;stroke:#b0b0b0;stroke-linecap:square;stroke-width:0.8;"/>
     </g>
     <g id="line2d_70">
      <g>
       <use style="stroke:#000000;stroke-width:0.8;" x="324.702149" xlink:href="#ma27603d659" y="307.584"/>
      </g>
     </g>
     <g id="text_35">
      <!-- x4_may -->
      <g transform="translate(326.76903 347.128269)rotate(-90)scale(0.0833 -0.0833)">
       <use xlink:href="#DejaVuSans-120"/>
       <use x="59.179688" xlink:href="#DejaVuSans-52"/>
       <use x="122.802734" xlink:href="#DejaVuSans-95"/>
       <use x="172.802734" xlink:href="#DejaVuSans-109"/>
       <use x="270.214844" xlink:href="#DejaVuSans-97"/>
       <use x="331.494141" xlink:href="#DejaVuSans-121"/>
      </g>
     </g>
    </g>
    <g id="xtick_36">
     <g id="line2d_71">
      <path clip-path="url(#pe41ae2b11c)" d="M 332.080661 307.584 
L 332.080661 41.472 
" style="fill:none;stroke:#b0b0b0;stroke-linecap:square;stroke-width:0.8;"/>
     </g>
     <g id="line2d_72">
      <g>
       <use style="stroke:#000000;stroke-width:0.8;" x="332.080661" xlink:href="#ma27603d659" y="307.584"/>
      </g>
     </g>
     <g id="text_36">
      <!-- x4_nov -->
      <g transform="translate(334.147542 344.285656)rotate(-90)scale(0.0833 -0.0833)">
       <use xlink:href="#DejaVuSans-120"/>
       <use x="59.179688" xlink:href="#DejaVuSans-52"/>
       <use x="122.802734" xlink:href="#DejaVuSans-95"/>
       <use x="172.802734" xlink:href="#DejaVuSans-110"/>
       <use x="236.181641" xlink:href="#DejaVuSans-111"/>
       <use x="297.363281" xlink:href="#DejaVuSans-118"/>
      </g>
     </g>
    </g>
    <g id="xtick_37">
     <g id="line2d_73">
      <path clip-path="url(#pe41ae2b11c)" d="M 339.459174 307.584 
L 339.459174 41.472 
" style="fill:none;stroke:#b0b0b0;stroke-linecap:square;stroke-width:0.8;"/>
     </g>
     <g id="line2d_74">
      <g>
       <use style="stroke:#000000;stroke-width:0.8;" x="339.459174" xlink:href="#ma27603d659" y="307.584"/>
      </g>
     </g>
     <g id="text_37">
      <!-- x4_oct -->
      <g transform="translate(341.526055 341.922019)rotate(-90)scale(0.0833 -0.0833)">
       <use xlink:href="#DejaVuSans-120"/>
       <use x="59.179688" xlink:href="#DejaVuSans-52"/>
       <use x="122.802734" xlink:href="#DejaVuSans-95"/>
       <use x="172.802734" xlink:href="#DejaVuSans-111"/>
       <use x="233.984375" xlink:href="#DejaVuSans-99"/>
       <use x="288.964844" xlink:href="#DejaVuSans-116"/>
      </g>
     </g>
    </g>
    <g id="xtick_38">
     <g id="line2d_75">
      <path clip-path="url(#pe41ae2b11c)" d="M 346.837686 307.584 
L 346.837686 41.472 
" style="fill:none;stroke:#b0b0b0;stroke-linecap:square;stroke-width:0.8;"/>
     </g>
     <g id="line2d_76">
      <g>
       <use style="stroke:#000000;stroke-width:0.8;" x="346.837686" xlink:href="#ma27603d659" y="307.584"/>
      </g>
     </g>
     <g id="text_38">
      <!-- x4_sep -->
      <g transform="translate(348.904567 343.732492)rotate(-90)scale(0.0833 -0.0833)">
       <use xlink:href="#DejaVuSans-120"/>
       <use x="59.179688" xlink:href="#DejaVuSans-52"/>
       <use x="122.802734" xlink:href="#DejaVuSans-95"/>
       <use x="172.802734" xlink:href="#DejaVuSans-115"/>
       <use x="224.902344" xlink:href="#DejaVuSans-101"/>
       <use x="286.425781" xlink:href="#DejaVuSans-112"/>
      </g>
     </g>
    </g>
    <g id="xtick_39">
     <g id="line2d_77">
      <path clip-path="url(#pe41ae2b11c)" d="M 354.216198 307.584 
L 354.216198 41.472 
" style="fill:none;stroke:#b0b0b0;stroke-linecap:square;stroke-width:0.8;"/>
     </g>
     <g id="line2d_78">
      <g>
       <use style="stroke:#000000;stroke-width:0.8;" x="354.216198" xlink:href="#ma27603d659" y="307.584"/>
      </g>
     </g>
     <g id="text_39">
      <!-- x5_failure -->
      <defs>
       <path d="M 10.796875 72.90625 
L 49.515625 72.90625 
L 49.515625 64.59375 
L 19.828125 64.59375 
L 19.828125 46.734375 
Q 21.96875 47.46875 24.109375 47.828125 
Q 26.265625 48.1875 28.421875 48.1875 
Q 40.625 48.1875 47.75 41.5 
Q 54.890625 34.8125 54.890625 23.390625 
Q 54.890625 11.625 47.5625 5.09375 
Q 40.234375 -1.421875 26.90625 -1.421875 
Q 22.3125 -1.421875 17.546875 -0.640625 
Q 12.796875 0.140625 7.71875 1.703125 
L 7.71875 11.625 
Q 12.109375 9.234375 16.796875 8.0625 
Q 21.484375 6.890625 26.703125 6.890625 
Q 35.15625 6.890625 40.078125 11.328125 
Q 45.015625 15.765625 45.015625 23.390625 
Q 45.015625 31 40.078125 35.4375 
Q 35.15625 39.890625 26.703125 39.890625 
Q 22.75 39.890625 18.8125 39.015625 
Q 14.890625 38.140625 10.796875 36.28125 
z
" id="DejaVuSans-53"/>
      </defs>
      <g transform="translate(356.398919 355.471284)rotate(-90)scale(0.0833 -0.0833)">
       <use xlink:href="#DejaVuSans-120"/>
       <use x="59.179688" xlink:href="#DejaVuSans-53"/>
       <use x="122.802734" xlink:href="#DejaVuSans-95"/>
       <use x="172.802734" xlink:href="#DejaVuSans-102"/>
       <use x="208.007812" xlink:href="#DejaVuSans-97"/>
       <use x="269.287109" xlink:href="#DejaVuSans-105"/>
       <use x="297.070312" xlink:href="#DejaVuSans-108"/>
       <use x="324.853516" xlink:href="#DejaVuSans-117"/>
       <use x="388.232422" xlink:href="#DejaVuSans-114"/>
       <use x="429.314453" xlink:href="#DejaVuSans-101"/>
      </g>
     </g>
    </g>
    <g id="xtick_40">
     <g id="line2d_79">
      <path clip-path="url(#pe41ae2b11c)" d="M 361.594711 307.584 
L 361.594711 41.472 
" style="fill:none;stroke:#b0b0b0;stroke-linecap:square;stroke-width:0.8;"/>
     </g>
     <g id="line2d_80">
      <g>
       <use style="stroke:#000000;stroke-width:0.8;" x="361.594711" xlink:href="#ma27603d659" y="307.584"/>
      </g>
     </g>
     <g id="text_40">
      <!-- x5_other -->
      <g transform="translate(363.777431 351.170922)rotate(-90)scale(0.0833 -0.0833)">
       <use xlink:href="#DejaVuSans-120"/>
       <use x="59.179688" xlink:href="#DejaVuSans-53"/>
       <use x="122.802734" xlink:href="#DejaVuSans-95"/>
       <use x="172.802734" xlink:href="#DejaVuSans-111"/>
       <use x="233.984375" xlink:href="#DejaVuSans-116"/>
       <use x="273.193359" xlink:href="#DejaVuSans-104"/>
       <use x="336.572266" xlink:href="#DejaVuSans-101"/>
       <use x="398.095703" xlink:href="#DejaVuSans-114"/>
      </g>
     </g>
    </g>
    <g id="xtick_41">
     <g id="line2d_81">
      <path clip-path="url(#pe41ae2b11c)" d="M 368.973223 307.584 
L 368.973223 41.472 
" style="fill:none;stroke:#b0b0b0;stroke-linecap:square;stroke-width:0.8;"/>
     </g>
     <g id="line2d_82">
      <g>
       <use style="stroke:#000000;stroke-width:0.8;" x="368.973223" xlink:href="#ma27603d659" y="307.584"/>
      </g>
     </g>
     <g id="text_41">
      <!-- x5_success -->
      <g transform="translate(371.040104 361.562597)rotate(-90)scale(0.0833 -0.0833)">
       <use xlink:href="#DejaVuSans-120"/>
       <use x="59.179688" xlink:href="#DejaVuSans-53"/>
       <use x="122.802734" xlink:href="#DejaVuSans-95"/>
       <use x="172.802734" xlink:href="#DejaVuSans-115"/>
       <use x="224.902344" xlink:href="#DejaVuSans-117"/>
       <use x="288.28125" xlink:href="#DejaVuSans-99"/>
       <use x="343.261719" xlink:href="#DejaVuSans-99"/>
       <use x="398.242188" xlink:href="#DejaVuSans-101"/>
       <use x="459.765625" xlink:href="#DejaVuSans-115"/>
       <use x="511.865234" xlink:href="#DejaVuSans-115"/>
      </g>
     </g>
    </g>
    <g id="xtick_42">
     <g id="line2d_83">
      <path clip-path="url(#pe41ae2b11c)" d="M 376.351736 307.584 
L 376.351736 41.472 
" style="fill:none;stroke:#b0b0b0;stroke-linecap:square;stroke-width:0.8;"/>
     </g>
     <g id="line2d_84">
      <g>
       <use style="stroke:#000000;stroke-width:0.8;" x="376.351736" xlink:href="#ma27603d659" y="307.584"/>
      </g>
     </g>
     <g id="text_42">
      <!-- housing -->
      <g transform="translate(378.650295 347.460167)rotate(-90)scale(0.0833 -0.0833)">
       <use xlink:href="#DejaVuSans-104"/>
       <use x="63.378906" xlink:href="#DejaVuSans-111"/>
       <use x="124.560547" xlink:href="#DejaVuSans-117"/>
       <use x="187.939453" xlink:href="#DejaVuSans-115"/>
       <use x="240.039062" xlink:href="#DejaVuSans-105"/>
       <use x="267.822266" xlink:href="#DejaVuSans-110"/>
       <use x="331.201172" xlink:href="#DejaVuSans-103"/>
      </g>
     </g>
    </g>
    <g id="xtick_43">
     <g id="line2d_85">
      <path clip-path="url(#pe41ae2b11c)" d="M 383.730248 307.584 
L 383.730248 41.472 
" style="fill:none;stroke:#b0b0b0;stroke-linecap:square;stroke-width:0.8;"/>
     </g>
     <g id="line2d_86">
      <g>
       <use style="stroke:#000000;stroke-width:0.8;" x="383.730248" xlink:href="#ma27603d659" y="307.584"/>
      </g>
     </g>
     <g id="text_43">
      <!-- default -->
      <g transform="translate(386.028807 343.893886)rotate(-90)scale(0.0833 -0.0833)">
       <use xlink:href="#DejaVuSans-100"/>
       <use x="63.476562" xlink:href="#DejaVuSans-101"/>
       <use x="125" xlink:href="#DejaVuSans-102"/>
       <use x="160.205078" xlink:href="#DejaVuSans-97"/>
       <use x="221.484375" xlink:href="#DejaVuSans-117"/>
       <use x="284.863281" xlink:href="#DejaVuSans-108"/>
       <use x="312.646484" xlink:href="#DejaVuSans-116"/>
      </g>
     </g>
    </g>
    <g id="xtick_44">
     <g id="line2d_87">
      <path clip-path="url(#pe41ae2b11c)" d="M 391.10876 307.584 
L 391.10876 41.472 
" style="fill:none;stroke:#b0b0b0;stroke-linecap:square;stroke-width:0.8;"/>
     </g>
     <g id="line2d_88">
      <g>
       <use style="stroke:#000000;stroke-width:0.8;" x="391.10876" xlink:href="#ma27603d659" y="307.584"/>
      </g>
     </g>
     <g id="text_44">
      <!-- loan -->
      <g transform="translate(393.40732 332.378963)rotate(-90)scale(0.0833 -0.0833)">
       <use xlink:href="#DejaVuSans-108"/>
       <use x="27.783203" xlink:href="#DejaVuSans-111"/>
       <use x="88.964844" xlink:href="#DejaVuSans-97"/>
       <use x="150.244141" xlink:href="#DejaVuSans-110"/>
      </g>
     </g>
    </g>
    <g id="xtick_45">
     <g id="line2d_89">
      <path clip-path="url(#pe41ae2b11c)" d="M 398.487273 307.584 
L 398.487273 41.472 
" style="fill:none;stroke:#b0b0b0;stroke-linecap:square;stroke-width:0.8;"/>
     </g>
     <g id="line2d_90">
      <g>
       <use style="stroke:#000000;stroke-width:0.8;" x="398.487273" xlink:href="#ma27603d659" y="307.584"/>
      </g>
     </g>
     <g id="text_45">
      <!-- y -->
      <g transform="translate(400.785832 319.514319)rotate(-90)scale(0.0833 -0.0833)">
       <use xlink:href="#DejaVuSans-121"/>
      </g>
     </g>
    </g>
   </g>
   <g id="matplotlib.axis_2">
    <g id="ytick_1">
     <g id="line2d_91">
      <path clip-path="url(#pe41ae2b11c)" d="M 57.6 288.917945 
L 414.72 288.917945 
" style="fill:none;stroke:#b0b0b0;stroke-linecap:square;stroke-width:0.8;"/>
     </g>
     <g id="line2d_92">
      <defs>
       <path d="M 0 0 
L -3.5 0 
" id="mb67c3327fa" style="stroke:#000000;stroke-width:0.8;"/>
      </defs>
      <g>
       <use style="stroke:#000000;stroke-width:0.8;" x="57.6" xlink:href="#mb67c3327fa" y="288.917945"/>
      </g>
     </g>
     <g id="text_46">
      <!-- −0.6 -->
      <defs>
       <path d="M 10.59375 35.5 
L 73.1875 35.5 
L 73.1875 27.203125 
L 10.59375 27.203125 
z
" id="DejaVuSans-8722"/>
       <path d="M 33.015625 40.375 
Q 26.375 40.375 22.484375 35.828125 
Q 18.609375 31.296875 18.609375 23.390625 
Q 18.609375 15.53125 22.484375 10.953125 
Q 26.375 6.390625 33.015625 6.390625 
Q 39.65625 6.390625 43.53125 10.953125 
Q 47.40625 15.53125 47.40625 23.390625 
Q 47.40625 31.296875 43.53125 35.828125 
Q 39.65625 40.375 33.015625 40.375 
z
M 52.59375 71.296875 
L 52.59375 62.3125 
Q 48.875 64.0625 45.09375 64.984375 
Q 41.3125 65.921875 37.59375 65.921875 
Q 27.828125 65.921875 22.671875 59.328125 
Q 17.53125 52.734375 16.796875 39.40625 
Q 19.671875 43.65625 24.015625 45.921875 
Q 28.375 48.1875 33.59375 48.1875 
Q 44.578125 48.1875 50.953125 41.515625 
Q 57.328125 34.859375 57.328125 23.390625 
Q 57.328125 12.15625 50.6875 5.359375 
Q 44.046875 -1.421875 33.015625 -1.421875 
Q 20.359375 -1.421875 13.671875 8.265625 
Q 6.984375 17.96875 6.984375 36.375 
Q 6.984375 53.65625 15.1875 63.9375 
Q 23.390625 74.21875 37.203125 74.21875 
Q 40.921875 74.21875 44.703125 73.484375 
Q 48.484375 72.75 52.59375 71.296875 
z
" id="DejaVuSans-54"/>
      </defs>
      <g transform="translate(26.317187 292.717163)scale(0.1 -0.1)">
       <use xlink:href="#DejaVuSans-8722"/>
       <use x="83.789062" xlink:href="#DejaVuSans-48"/>
       <use x="147.412109" xlink:href="#DejaVuSans-46"/>
       <use x="179.199219" xlink:href="#DejaVuSans-54"/>
      </g>
     </g>
    </g>
    <g id="ytick_2">
     <g id="line2d_93">
      <path clip-path="url(#pe41ae2b11c)" d="M 57.6 255.276407 
L 414.72 255.276407 
" style="fill:none;stroke:#b0b0b0;stroke-linecap:square;stroke-width:0.8;"/>
     </g>
     <g id="line2d_94">
      <g>
       <use style="stroke:#000000;stroke-width:0.8;" x="57.6" xlink:href="#mb67c3327fa" y="255.276407"/>
      </g>
     </g>
     <g id="text_47">
      <!-- −0.4 -->
      <g transform="translate(26.317187 259.075626)scale(0.1 -0.1)">
       <use xlink:href="#DejaVuSans-8722"/>
       <use x="83.789062" xlink:href="#DejaVuSans-48"/>
       <use x="147.412109" xlink:href="#DejaVuSans-46"/>
       <use x="179.199219" xlink:href="#DejaVuSans-52"/>
      </g>
     </g>
    </g>
    <g id="ytick_3">
     <g id="line2d_95">
      <path clip-path="url(#pe41ae2b11c)" d="M 57.6 221.634869 
L 414.72 221.634869 
" style="fill:none;stroke:#b0b0b0;stroke-linecap:square;stroke-width:0.8;"/>
     </g>
     <g id="line2d_96">
      <g>
       <use style="stroke:#000000;stroke-width:0.8;" x="57.6" xlink:href="#mb67c3327fa" y="221.634869"/>
      </g>
     </g>
     <g id="text_48">
      <!-- −0.2 -->
      <g transform="translate(26.317187 225.434088)scale(0.1 -0.1)">
       <use xlink:href="#DejaVuSans-8722"/>
       <use x="83.789062" xlink:href="#DejaVuSans-48"/>
       <use x="147.412109" xlink:href="#DejaVuSans-46"/>
       <use x="179.199219" xlink:href="#DejaVuSans-50"/>
      </g>
     </g>
    </g>
    <g id="ytick_4">
     <g id="line2d_97">
      <path clip-path="url(#pe41ae2b11c)" d="M 57.6 187.993332 
L 414.72 187.993332 
" style="fill:none;stroke:#b0b0b0;stroke-linecap:square;stroke-width:0.8;"/>
     </g>
     <g id="line2d_98">
      <g>
       <use style="stroke:#000000;stroke-width:0.8;" x="57.6" xlink:href="#mb67c3327fa" y="187.993332"/>
      </g>
     </g>
     <g id="text_49">
      <!-- 0.0 -->
      <g transform="translate(34.696875 191.79255)scale(0.1 -0.1)">
       <use xlink:href="#DejaVuSans-48"/>
       <use x="63.623047" xlink:href="#DejaVuSans-46"/>
       <use x="95.410156" xlink:href="#DejaVuSans-48"/>
      </g>
     </g>
    </g>
    <g id="ytick_5">
     <g id="line2d_99">
      <path clip-path="url(#pe41ae2b11c)" d="M 57.6 154.351794 
L 414.72 154.351794 
" style="fill:none;stroke:#b0b0b0;stroke-linecap:square;stroke-width:0.8;"/>
     </g>
     <g id="line2d_100">
      <g>
       <use style="stroke:#000000;stroke-width:0.8;" x="57.6" xlink:href="#mb67c3327fa" y="154.351794"/>
      </g>
     </g>
     <g id="text_50">
      <!-- 0.2 -->
      <g transform="translate(34.696875 158.151013)scale(0.1 -0.1)">
       <use xlink:href="#DejaVuSans-48"/>
       <use x="63.623047" xlink:href="#DejaVuSans-46"/>
       <use x="95.410156" xlink:href="#DejaVuSans-50"/>
      </g>
     </g>
    </g>
    <g id="ytick_6">
     <g id="line2d_101">
      <path clip-path="url(#pe41ae2b11c)" d="M 57.6 120.710256 
L 414.72 120.710256 
" style="fill:none;stroke:#b0b0b0;stroke-linecap:square;stroke-width:0.8;"/>
     </g>
     <g id="line2d_102">
      <g>
       <use style="stroke:#000000;stroke-width:0.8;" x="57.6" xlink:href="#mb67c3327fa" y="120.710256"/>
      </g>
     </g>
     <g id="text_51">
      <!-- 0.4 -->
      <g transform="translate(34.696875 124.509475)scale(0.1 -0.1)">
       <use xlink:href="#DejaVuSans-48"/>
       <use x="63.623047" xlink:href="#DejaVuSans-46"/>
       <use x="95.410156" xlink:href="#DejaVuSans-52"/>
      </g>
     </g>
    </g>
    <g id="ytick_7">
     <g id="line2d_103">
      <path clip-path="url(#pe41ae2b11c)" d="M 57.6 87.068719 
L 414.72 87.068719 
" style="fill:none;stroke:#b0b0b0;stroke-linecap:square;stroke-width:0.8;"/>
     </g>
     <g id="line2d_104">
      <g>
       <use style="stroke:#000000;stroke-width:0.8;" x="57.6" xlink:href="#mb67c3327fa" y="87.068719"/>
      </g>
     </g>
     <g id="text_52">
      <!-- 0.6 -->
      <g transform="translate(34.696875 90.867937)scale(0.1 -0.1)">
       <use xlink:href="#DejaVuSans-48"/>
       <use x="63.623047" xlink:href="#DejaVuSans-46"/>
       <use x="95.410156" xlink:href="#DejaVuSans-54"/>
      </g>
     </g>
    </g>
    <g id="ytick_8">
     <g id="line2d_105">
      <path clip-path="url(#pe41ae2b11c)" d="M 57.6 53.427181 
L 414.72 53.427181 
" style="fill:none;stroke:#b0b0b0;stroke-linecap:square;stroke-width:0.8;"/>
     </g>
     <g id="line2d_106">
      <g>
       <use style="stroke:#000000;stroke-width:0.8;" x="57.6" xlink:href="#mb67c3327fa" y="53.427181"/>
      </g>
     </g>
     <g id="text_53">
      <!-- 0.8 -->
      <defs>
       <path d="M 31.78125 34.625 
Q 24.75 34.625 20.71875 30.859375 
Q 16.703125 27.09375 16.703125 20.515625 
Q 16.703125 13.921875 20.71875 10.15625 
Q 24.75 6.390625 31.78125 6.390625 
Q 38.8125 6.390625 42.859375 10.171875 
Q 46.921875 13.96875 46.921875 20.515625 
Q 46.921875 27.09375 42.890625 30.859375 
Q 38.875 34.625 31.78125 34.625 
z
M 21.921875 38.8125 
Q 15.578125 40.375 12.03125 44.71875 
Q 8.5 49.078125 8.5 55.328125 
Q 8.5 64.0625 14.71875 69.140625 
Q 20.953125 74.21875 31.78125 74.21875 
Q 42.671875 74.21875 48.875 69.140625 
Q 55.078125 64.0625 55.078125 55.328125 
Q 55.078125 49.078125 51.53125 44.71875 
Q 48 40.375 41.703125 38.8125 
Q 48.828125 37.15625 52.796875 32.3125 
Q 56.78125 27.484375 56.78125 20.515625 
Q 56.78125 9.90625 50.3125 4.234375 
Q 43.84375 -1.421875 31.78125 -1.421875 
Q 19.734375 -1.421875 13.25 4.234375 
Q 6.78125 9.90625 6.78125 20.515625 
Q 6.78125 27.484375 10.78125 32.3125 
Q 14.796875 37.15625 21.921875 38.8125 
z
M 18.3125 54.390625 
Q 18.3125 48.734375 21.84375 45.5625 
Q 25.390625 42.390625 31.78125 42.390625 
Q 38.140625 42.390625 41.71875 45.5625 
Q 45.3125 48.734375 45.3125 54.390625 
Q 45.3125 60.0625 41.71875 63.234375 
Q 38.140625 66.40625 31.78125 66.40625 
Q 25.390625 66.40625 21.84375 63.234375 
Q 18.3125 60.0625 18.3125 54.390625 
z
" id="DejaVuSans-56"/>
      </defs>
      <g transform="translate(34.696875 57.2264)scale(0.1 -0.1)">
       <use xlink:href="#DejaVuSans-48"/>
       <use x="63.623047" xlink:href="#DejaVuSans-46"/>
       <use x="95.410156" xlink:href="#DejaVuSans-56"/>
      </g>
     </g>
    </g>
   </g>
   <g id="line2d_107">
    <path clip-path="url(#pe41ae2b11c)" d="M 73.832727 180.192145 
L 81.21124 178.259002 
L 88.589752 220.520318 
L 95.968264 193.77564 
L 103.346777 229.516315 
L 110.725289 75.170677 
L 118.103802 77.429862 
L 125.482314 186.734966 
L 132.860826 191.003878 
L 140.239339 188.749151 
L 147.617851 188.467526 
L 154.996364 185.655031 
L 162.374876 186.320057 
L 169.753388 188.175005 
L 177.131901 188.625238 
L 184.510413 187.292389 
L 191.888926 189.236064 
L 199.267438 187.667344 
L 206.64595 188.443141 
L 214.024463 188.616194 
L 221.402975 186.92066 
L 228.781488 189.505527 
L 236.16 189.424913 
L 243.538512 185.049555 
L 250.917025 187.375967 
L 258.295537 188.610697 
L 265.67405 185.901203 
L 273.052562 191.192276 
L 280.431074 187.097353 
L 287.809587 184.420844 
L 295.188099 187.711537 
L 302.566612 195.385817 
L 309.945124 190.841179 
L 317.323636 186.97442 
L 324.702149 187.571608 
L 332.080661 187.645346 
L 339.459174 186.111509 
L 346.837686 185.066888 
L 354.216198 186.957527 
L 361.594711 186.394581 
L 368.973223 190.627887 
L 376.351736 186.624796 
L 383.730248 188.610053 
L 391.10876 190.628304 
L 398.487273 173.593057 
" style="fill:none;stroke:#1f77b4;stroke-linecap:square;stroke-width:1.5;"/>
   </g>
   <g id="line2d_108">
    <path clip-path="url(#pe41ae2b11c)" d="M 73.832727 53.568 
L 81.21124 108.726385 
L 88.589752 182.566895 
L 95.968264 185.737384 
L 103.346777 192.366801 
L 110.725289 200.335182 
L 118.103802 191.788741 
L 125.482314 192.489403 
L 132.860826 191.692158 
L 140.239339 187.397748 
L 147.617851 186.043308 
L 154.996364 187.954392 
L 162.374876 168.005529 
L 169.753388 188.073674 
L 177.131901 191.707378 
L 184.510413 193.853955 
L 191.888926 192.613027 
L 199.267438 188.096075 
L 206.64595 181.720609 
L 214.024463 158.127177 
L 221.402975 224.132209 
L 228.781488 176.593564 
L 236.16 196.288665 
L 243.538512 191.097766 
L 250.917025 196.821077 
L 258.295537 179.165586 
L 265.67405 188.702401 
L 273.052562 183.681645 
L 280.431074 187.235148 
L 287.809587 187.391859 
L 295.188099 187.775354 
L 302.566612 188.855205 
L 309.945124 187.15633 
L 317.323636 187.038457 
L 324.702149 200.735184 
L 332.080661 184.752777 
L 339.459174 185.916909 
L 346.837686 186.678711 
L 354.216198 190.473327 
L 361.594711 189.13556 
L 368.973223 184.371109 
L 376.351736 206.678375 
L 383.730248 188.653576 
L 391.10876 191.204315 
L 398.487273 182.556885 
" style="fill:none;stroke:#ff7f0e;stroke-linecap:square;stroke-width:1.5;"/>
   </g>
   <g id="line2d_109">
    <path clip-path="url(#pe41ae2b11c)" d="M 73.832727 176.698244 
L 81.21124 203.679199 
L 88.589752 109.212611 
L 95.968264 291.993375 
L 103.346777 98.31582 
L 110.725289 164.147035 
L 118.103802 155.561699 
L 125.482314 187.320205 
L 132.860826 187.740844 
L 140.239339 187.919257 
L 147.617851 187.581117 
L 154.996364 188.744568 
L 162.374876 187.993751 
L 169.753388 188.341426 
L 177.131901 188.027803 
L 184.510413 188.67216 
L 191.888926 186.912728 
L 199.267438 188.67279 
L 206.64595 188.85001 
L 214.024463 180.196575 
L 221.402975 194.93341 
L 228.781488 186.866853 
L 236.16 187.379018 
L 243.538512 189.734124 
L 250.917025 190.128572 
L 258.295537 185.858091 
L 265.67405 187.388157 
L 273.052562 185.090356 
L 280.431074 188.072024 
L 287.809587 191.751738 
L 295.188099 185.941617 
L 302.566612 183.827627 
L 309.945124 191.595364 
L 317.323636 188.38838 
L 324.702149 189.458809 
L 332.080661 188.309562 
L 339.459174 187.279737 
L 346.837686 188.816609 
L 354.216198 187.43492 
L 361.594711 186.176268 
L 368.973223 190.368807 
L 376.351736 187.32522 
L 383.730248 187.903543 
L 391.10876 186.361587 
L 398.487273 220.163166 
" style="fill:none;stroke:#2ca02c;stroke-linecap:square;stroke-width:1.5;"/>
   </g>
   <g id="line2d_110">
    <path clip-path="url(#pe41ae2b11c)" d="M 73.832727 211.484186 
L 81.21124 142.869993 
L 88.589752 93.079268 
L 95.968264 79.773991 
L 103.346777 137.620689 
L 110.725289 168.164196 
L 118.103802 162.297004 
L 125.482314 188.583769 
L 132.860826 190.285332 
L 140.239339 188.224571 
L 147.617851 188.513805 
L 154.996364 184.534981 
L 162.374876 190.868475 
L 169.753388 187.175719 
L 177.131901 188.379127 
L 184.510413 187.098789 
L 191.888926 186.661756 
L 199.267438 187.600323 
L 206.64595 189.071751 
L 214.024463 197.197555 
L 221.402975 177.710688 
L 228.781488 191.107829 
L 236.16 190.398213 
L 243.538512 182.473952 
L 250.917025 187.427899 
L 258.295537 188.558765 
L 265.67405 183.726335 
L 273.052562 188.583424 
L 280.431074 187.645186 
L 287.809587 193.633313 
L 295.188099 185.211712 
L 302.566612 181.522389 
L 309.945124 195.327113 
L 317.323636 189.132827 
L 324.702149 189.168253 
L 332.080661 186.647058 
L 339.459174 186.706678 
L 346.837686 188.61569 
L 354.216198 188.633334 
L 361.594711 186.857488 
L 368.973223 188.489174 
L 376.351736 186.169557 
L 383.730248 188.349129 
L 391.10876 189.359178 
L 398.487273 157.020615 
" style="fill:none;stroke:#d62728;stroke-linecap:square;stroke-width:1.5;"/>
   </g>
   <g id="line2d_111">
    <path clip-path="url(#pe41ae2b11c)" d="M 73.832727 254.576461 
L 81.21124 54.520159 
L 88.589752 187.463321 
L 95.968264 245.187278 
L 103.346777 214.79941 
L 110.725289 196.231846 
L 118.103802 200.320154 
L 125.482314 188.344022 
L 132.860826 193.707427 
L 140.239339 188.435078 
L 147.617851 189.085856 
L 154.996364 177.963657 
L 162.374876 197.020667 
L 169.753388 186.771901 
L 177.131901 189.413953 
L 184.510413 183.911134 
L 191.888926 184.768297 
L 199.267438 188.504656 
L 206.64595 193.328102 
L 214.024463 206.6796 
L 221.402975 163.972293 
L 228.781488 197.635219 
L 236.16 195.869473 
L 243.538512 170.475303 
L 250.917025 184.529086 
L 258.295537 191.457578 
L 265.67405 186.229254 
L 273.052562 189.402885 
L 280.431074 187.837406 
L 287.809587 187.830746 
L 295.188099 188.199228 
L 302.566612 193.174044 
L 309.945124 188.072154 
L 317.323636 186.858896 
L 324.702149 189.277474 
L 332.080661 183.797882 
L 339.459174 187.368897 
L 346.837686 187.871114 
L 354.216198 188.174634 
L 361.594711 188.006511 
L 368.973223 187.79885 
L 376.351736 190.332823 
L 383.730248 188.793654 
L 391.10876 192.396733 
L 398.487273 196.326173 
" style="fill:none;stroke:#9467bd;stroke-linecap:square;stroke-width:1.5;"/>
   </g>
   <g id="line2d_112">
    <path clip-path="url(#pe41ae2b11c)" d="M 73.832727 196.972955 
L 81.21124 158.465879 
L 88.589752 295.488 
L 95.968264 167.151668 
L 103.346777 66.425953 
L 110.725289 187.325488 
L 118.103802 175.483698 
L 125.482314 189.156903 
L 132.860826 186.926416 
L 140.239339 187.313724 
L 147.617851 187.942247 
L 154.996364 184.195609 
L 162.374876 190.650263 
L 169.753388 188.134708 
L 177.131901 188.758519 
L 184.510413 188.107132 
L 191.888926 188.373618 
L 199.267438 188.367509 
L 206.64595 190.027673 
L 214.024463 187.344189 
L 221.402975 186.608133 
L 228.781488 187.734796 
L 236.16 192.176821 
L 243.538512 184.068377 
L 250.917025 188.508408 
L 258.295537 187.478255 
L 265.67405 195.226647 
L 273.052562 180.950372 
L 280.431074 187.951138 
L 287.809587 181.493752 
L 295.188099 193.420297 
L 302.566612 188.204192 
L 309.945124 177.206637 
L 317.323636 187.77304 
L 324.702149 191.429971 
L 332.080661 192.943202 
L 339.459174 191.691771 
L 346.837686 187.628959 
L 354.216198 189.200867 
L 361.594711 186.573016 
L 368.973223 188.206112 
L 376.351736 186.083563 
L 383.730248 188.271886 
L 391.10876 188.62406 
L 398.487273 186.227006 
" style="fill:none;stroke:#8c564b;stroke-linecap:square;stroke-width:1.5;"/>
   </g>
   <g id="patch_3">
    <path d="M 57.6 307.584 
L 57.6 41.472 
" style="fill:none;stroke:#000000;stroke-linecap:square;stroke-linejoin:miter;stroke-width:0.8;"/>
   </g>
   <g id="patch_4">
    <path d="M 414.72 307.584 
L 414.72 41.472 
" style="fill:none;stroke:#000000;stroke-linecap:square;stroke-linejoin:miter;stroke-width:0.8;"/>
   </g>
   <g id="patch_5">
    <path d="M 57.6 307.584 
L 414.72 307.584 
" style="fill:none;stroke:#000000;stroke-linecap:square;stroke-linejoin:miter;stroke-width:0.8;"/>
   </g>
   <g id="patch_6">
    <path d="M 57.6 41.472 
L 414.72 41.472 
" style="fill:none;stroke:#000000;stroke-linecap:square;stroke-linejoin:miter;stroke-width:0.8;"/>
   </g>
   <g id="legend_1">
    <g id="patch_7">
     <path d="M 302.434063 137.54075 
L 407.72 137.54075 
Q 409.72 137.54075 409.72 135.54075 
L 409.72 48.472 
Q 409.72 46.472 407.72 46.472 
L 302.434063 46.472 
Q 300.434063 46.472 300.434063 48.472 
L 300.434063 135.54075 
Q 300.434063 137.54075 302.434063 137.54075 
z
" style="fill:#ffffff;opacity:0.8;stroke:#cccccc;stroke-linejoin:miter;"/>
    </g>
    <g id="line2d_113">
     <path d="M 304.434063 54.570438 
L 324.434063 54.570438 
" style="fill:none;stroke:#1f77b4;stroke-linecap:square;stroke-width:1.5;"/>
    </g>
    <g id="line2d_114"/>
    <g id="text_54">
     <!-- Eigen Vector 0 -->
     <defs>
      <path d="M 9.8125 72.90625 
L 55.90625 72.90625 
L 55.90625 64.59375 
L 19.671875 64.59375 
L 19.671875 43.015625 
L 54.390625 43.015625 
L 54.390625 34.71875 
L 19.671875 34.71875 
L 19.671875 8.296875 
L 56.78125 8.296875 
L 56.78125 0 
L 9.8125 0 
z
" id="DejaVuSans-69"/>
      <path id="DejaVuSans-32"/>
      <path d="M 28.609375 0 
L 0.78125 72.90625 
L 11.078125 72.90625 
L 34.1875 11.53125 
L 57.328125 72.90625 
L 67.578125 72.90625 
L 39.796875 0 
z
" id="DejaVuSans-86"/>
     </defs>
     <g transform="translate(332.434063 58.070438)scale(0.1 -0.1)">
      <use xlink:href="#DejaVuSans-69"/>
      <use x="63.183594" xlink:href="#DejaVuSans-105"/>
      <use x="90.966797" xlink:href="#DejaVuSans-103"/>
      <use x="154.443359" xlink:href="#DejaVuSans-101"/>
      <use x="215.966797" xlink:href="#DejaVuSans-110"/>
      <use x="279.345703" xlink:href="#DejaVuSans-32"/>
      <use x="311.132812" xlink:href="#DejaVuSans-86"/>
      <use x="379.431641" xlink:href="#DejaVuSans-101"/>
      <use x="440.955078" xlink:href="#DejaVuSans-99"/>
      <use x="495.935547" xlink:href="#DejaVuSans-116"/>
      <use x="535.144531" xlink:href="#DejaVuSans-111"/>
      <use x="596.326172" xlink:href="#DejaVuSans-114"/>
      <use x="637.439453" xlink:href="#DejaVuSans-32"/>
      <use x="669.226562" xlink:href="#DejaVuSans-48"/>
     </g>
    </g>
    <g id="line2d_115">
     <path d="M 304.434063 69.248563 
L 324.434063 69.248563 
" style="fill:none;stroke:#ff7f0e;stroke-linecap:square;stroke-width:1.5;"/>
    </g>
    <g id="line2d_116"/>
    <g id="text_55">
     <!-- Eigen Vector 1 -->
     <g transform="translate(332.434063 72.748563)scale(0.1 -0.1)">
      <use xlink:href="#DejaVuSans-69"/>
      <use x="63.183594" xlink:href="#DejaVuSans-105"/>
      <use x="90.966797" xlink:href="#DejaVuSans-103"/>
      <use x="154.443359" xlink:href="#DejaVuSans-101"/>
      <use x="215.966797" xlink:href="#DejaVuSans-110"/>
      <use x="279.345703" xlink:href="#DejaVuSans-32"/>
      <use x="311.132812" xlink:href="#DejaVuSans-86"/>
      <use x="379.431641" xlink:href="#DejaVuSans-101"/>
      <use x="440.955078" xlink:href="#DejaVuSans-99"/>
      <use x="495.935547" xlink:href="#DejaVuSans-116"/>
      <use x="535.144531" xlink:href="#DejaVuSans-111"/>
      <use x="596.326172" xlink:href="#DejaVuSans-114"/>
      <use x="637.439453" xlink:href="#DejaVuSans-32"/>
      <use x="669.226562" xlink:href="#DejaVuSans-49"/>
     </g>
    </g>
    <g id="line2d_117">
     <path d="M 304.434063 83.926688 
L 324.434063 83.926688 
" style="fill:none;stroke:#2ca02c;stroke-linecap:square;stroke-width:1.5;"/>
    </g>
    <g id="line2d_118"/>
    <g id="text_56">
     <!-- Eigen Vector 2 -->
     <g transform="translate(332.434063 87.426688)scale(0.1 -0.1)">
      <use xlink:href="#DejaVuSans-69"/>
      <use x="63.183594" xlink:href="#DejaVuSans-105"/>
      <use x="90.966797" xlink:href="#DejaVuSans-103"/>
      <use x="154.443359" xlink:href="#DejaVuSans-101"/>
      <use x="215.966797" xlink:href="#DejaVuSans-110"/>
      <use x="279.345703" xlink:href="#DejaVuSans-32"/>
      <use x="311.132812" xlink:href="#DejaVuSans-86"/>
      <use x="379.431641" xlink:href="#DejaVuSans-101"/>
      <use x="440.955078" xlink:href="#DejaVuSans-99"/>
      <use x="495.935547" xlink:href="#DejaVuSans-116"/>
      <use x="535.144531" xlink:href="#DejaVuSans-111"/>
      <use x="596.326172" xlink:href="#DejaVuSans-114"/>
      <use x="637.439453" xlink:href="#DejaVuSans-32"/>
      <use x="669.226562" xlink:href="#DejaVuSans-50"/>
     </g>
    </g>
    <g id="line2d_119">
     <path d="M 304.434063 98.604813 
L 324.434063 98.604813 
" style="fill:none;stroke:#d62728;stroke-linecap:square;stroke-width:1.5;"/>
    </g>
    <g id="line2d_120"/>
    <g id="text_57">
     <!-- Eigen Vector 3 -->
     <g transform="translate(332.434063 102.104813)scale(0.1 -0.1)">
      <use xlink:href="#DejaVuSans-69"/>
      <use x="63.183594" xlink:href="#DejaVuSans-105"/>
      <use x="90.966797" xlink:href="#DejaVuSans-103"/>
      <use x="154.443359" xlink:href="#DejaVuSans-101"/>
      <use x="215.966797" xlink:href="#DejaVuSans-110"/>
      <use x="279.345703" xlink:href="#DejaVuSans-32"/>
      <use x="311.132812" xlink:href="#DejaVuSans-86"/>
      <use x="379.431641" xlink:href="#DejaVuSans-101"/>
      <use x="440.955078" xlink:href="#DejaVuSans-99"/>
      <use x="495.935547" xlink:href="#DejaVuSans-116"/>
      <use x="535.144531" xlink:href="#DejaVuSans-111"/>
      <use x="596.326172" xlink:href="#DejaVuSans-114"/>
      <use x="637.439453" xlink:href="#DejaVuSans-32"/>
      <use x="669.226562" xlink:href="#DejaVuSans-51"/>
     </g>
    </g>
    <g id="line2d_121">
     <path d="M 304.434063 113.282938 
L 324.434063 113.282938 
" style="fill:none;stroke:#9467bd;stroke-linecap:square;stroke-width:1.5;"/>
    </g>
    <g id="line2d_122"/>
    <g id="text_58">
     <!-- Eigen Vector 4 -->
     <g transform="translate(332.434063 116.782938)scale(0.1 -0.1)">
      <use xlink:href="#DejaVuSans-69"/>
      <use x="63.183594" xlink:href="#DejaVuSans-105"/>
      <use x="90.966797" xlink:href="#DejaVuSans-103"/>
      <use x="154.443359" xlink:href="#DejaVuSans-101"/>
      <use x="215.966797" xlink:href="#DejaVuSans-110"/>
      <use x="279.345703" xlink:href="#DejaVuSans-32"/>
      <use x="311.132812" xlink:href="#DejaVuSans-86"/>
      <use x="379.431641" xlink:href="#DejaVuSans-101"/>
      <use x="440.955078" xlink:href="#DejaVuSans-99"/>
      <use x="495.935547" xlink:href="#DejaVuSans-116"/>
      <use x="535.144531" xlink:href="#DejaVuSans-111"/>
      <use x="596.326172" xlink:href="#DejaVuSans-114"/>
      <use x="637.439453" xlink:href="#DejaVuSans-32"/>
      <use x="669.226562" xlink:href="#DejaVuSans-52"/>
     </g>
    </g>
    <g id="line2d_123">
     <path d="M 304.434063 127.961063 
L 324.434063 127.961063 
" style="fill:none;stroke:#8c564b;stroke-linecap:square;stroke-width:1.5;"/>
    </g>
    <g id="line2d_124"/>
    <g id="text_59">
     <!-- Eigen Vector 5 -->
     <g transform="translate(332.434063 131.461063)scale(0.1 -0.1)">
      <use xlink:href="#DejaVuSans-69"/>
      <use x="63.183594" xlink:href="#DejaVuSans-105"/>
      <use x="90.966797" xlink:href="#DejaVuSans-103"/>
      <use x="154.443359" xlink:href="#DejaVuSans-101"/>
      <use x="215.966797" xlink:href="#DejaVuSans-110"/>
      <use x="279.345703" xlink:href="#DejaVuSans-32"/>
      <use x="311.132812" xlink:href="#DejaVuSans-86"/>
      <use x="379.431641" xlink:href="#DejaVuSans-101"/>
      <use x="440.955078" xlink:href="#DejaVuSans-99"/>
      <use x="495.935547" xlink:href="#DejaVuSans-116"/>
      <use x="535.144531" xlink:href="#DejaVuSans-111"/>
      <use x="596.326172" xlink:href="#DejaVuSans-114"/>
      <use x="637.439453" xlink:href="#DejaVuSans-32"/>
      <use x="669.226562" xlink:href="#DejaVuSans-53"/>
     </g>
    </g>
   </g>
  </g>
 </g>
 <defs>
  <clipPath id="pe41ae2b11c">
   <rect height="266.112" width="357.12" x="57.6" y="41.472"/>
  </clipPath>
 </defs>
</svg>
